id,item_id,item_type,domain_id,deleted_at,created_at,updated_at,state,sources_count
73,13,CourseTemplate,2,,2018-01-11 21:14:33.204819,2018-01-11 21:14:33,1,1
74,12,CourseTemplate,2,,2018-01-11 21:14:33.291731,2018-01-11 21:14:33,1,1
75,18,CourseTemplate,2,,2018-01-11 21:14:33.367186,2018-01-11 21:14:33,1,1
76,11,CourseTemplate,2,,2018-01-11 21:14:33.447656,2018-01-11 21:14:33,1,1
77,15,CourseTemplate,2,,2018-01-11 21:14:33.525034,2018-01-11 21:14:33,1,1
78,7,CourseTemplate,2,,2018-01-11 21:14:33.605347,2018-01-11 21:14:33,1,1
79,6,CourseTemplate,2,,2018-01-11 21:14:33.687058,2018-01-11 21:14:33,1,1
80,10,CourseTemplate,2,,2018-01-11 21:14:33.765831,2018-01-11 21:14:33,1,1
81,17,CourseTemplate,2,,2018-01-11 21:14:33.841898,2018-01-11 21:14:33,1,1
82,5,CourseTemplate,2,,2018-01-11 21:14:33.928997,2018-01-11 21:14:34,1,1
83,4,CourseTemplate,2,,2018-01-11 21:14:34.607282,2018-01-11 21:14:34,1,1
84,14,CourseTemplate,2,,2018-01-11 21:14:34.68932,2018-01-11 21:14:34,1,1
85,9,CourseTemplate,2,,2018-01-11 21:14:34.758978,2018-01-11 21:14:34,1,1
86,3,CourseTemplate,2,,2018-01-11 21:14:34.831647,2018-01-11 21:14:34,1,1
87,2,CourseTemplate,2,,2018-01-11 21:14:34.903044,2018-01-11 21:14:34,1,1
88,8,CourseTemplate,2,,2018-01-11 21:14:34.974124,2018-01-11 21:14:34,1,1
89,1,CourseTemplate,2,,2018-01-11 21:14:35.051157,2018-01-11 21:14:35,1,1
67,1,Program,2,,2018-01-11 21:14:32.589337,2018-01-11 21:14:35.115621,1,1
68,12,Task,2,,2018-01-11 21:14:32.750052,2018-01-11 21:14:32,1,1
69,14,Task,2,,2018-01-11 21:14:32.878171,2018-01-11 21:14:32,1,1
70,13,Task,2,,2018-01-11 21:14:32.95275,2018-01-11 21:14:32,1,1
71,19,CourseTemplate,2,,2018-01-11 21:14:33.029086,2018-01-11 21:14:33,1,1
72,16,CourseTemplate,2,,2018-01-11 21:14:33.123748,2018-01-11 21:14:33,1,1
92,22,Task,2,,2018-03-06 15:34:35.322675,2018-03-06 15:34:35,1,1
220,9,Program,31,,2018-07-12 15:38:14.770402,2018-07-12 15:38:29.870045,1,1
275,293,CourseTemplate,31,2018-10-01 15:07:43.217051,2018-10-01 15:04:42.121325,2018-10-01 15:07:43,1,0
252,16,CourseTemplate,102,,2018-08-28 15:06:03.919092,2018-08-28 15:06:04,1,1
254,12,CourseTemplate,102,,2018-08-28 15:06:04.356736,2018-08-28 15:06:04,1,1
262,5,CourseTemplate,102,,2018-08-28 15:06:06.433565,2018-08-28 15:06:06,1,1
263,4,CourseTemplate,102,,2018-08-28 15:06:06.761142,2018-08-28 15:06:06,1,1
243,1,Program,102,,2018-08-28 15:06:02.56356,2018-08-28 15:06:08.808052,1,1
276,281,CourseTemplate,31,2018-10-01 15:26:03.192432,2018-10-01 15:04:45.582461,2018-10-01 15:26:03,1,0
270,59,Task,102,,2018-08-29 15:18:16.337387,2018-08-29 15:18:16.428835,1,1
291,319,CourseTemplate,113,2018-10-17 16:13:55.116112,2018-10-17 16:11:54.663993,2018-10-17 16:13:55,1,0
280,292,CourseTemplate,31,2018-10-01 20:44:22.398257,2018-10-01 20:43:28.895629,2018-10-01 20:44:22,1,0
296,9,Program,102,,2018-12-14 02:10:17.734535,2018-12-14 02:10:19.40066,1,1
274,273,CourseTemplate,102,2018-09-11 20:20:25.165478,2018-09-11 20:19:36.058588,2018-09-11 20:20:25,1,0
273,272,CourseTemplate,102,2018-09-11 20:20:51.664938,2018-09-11 20:18:49.623077,2018-09-11 20:20:51,1,0
321,6,CourseTemplate,141,,2019-05-22 18:47:21.385713,2019-05-22 18:47:21,1,1
322,10,CourseTemplate,141,,2019-05-22 18:47:21.644936,2019-05-22 18:47:21,1,1
323,17,CourseTemplate,141,,2019-05-22 18:47:21.901619,2019-05-22 18:47:22,1,1
283,289,CourseTemplate,31,2018-10-04 11:06:55.301618,2018-10-04 11:04:32.842117,2018-10-04 11:06:55,1,0
329,2,CourseTemplate,141,,2019-05-22 18:47:23.99699,2019-05-22 18:47:24,1,1
289,283,CourseTemplate,31,2018-10-04 11:08:32.86018,2018-10-04 11:05:09.556173,2018-10-04 11:08:32,1,0
305,1,Program,141,,2019-05-22 18:47:17.865568,2019-05-22 18:47:24.659117,1,1
346,15,CourseTemplate,31,2019-08-21 15:23:45.557388,2019-08-20 17:12:04.050928,2019-08-21 15:23:45,0,0
348,6,CourseTemplate,31,2019-08-21 15:23:45.979871,2019-08-20 17:12:04.725988,2019-08-21 15:23:45,0,0
332,1,Program,31,2019-08-21 15:23:48.193539,2019-08-20 17:12:00.973744,2019-08-21 15:23:43,0,0
120,4,ProgramSection,2,,2018-04-12 17:36:26.315506,2018-04-12 17:36:26,1,1
121,3,ProgramSection,2,,2018-04-12 17:36:26.388596,2018-04-12 17:36:26,1,1
122,5,ProgramSection,2,,2018-04-12 17:36:26.444153,2018-04-12 17:36:26,1,1
221,101,CourseTemplate,31,,2018-07-12 15:38:15.302926,2018-07-12 15:38:16,1,1
222,100,CourseTemplate,31,,2018-07-12 15:38:17.278735,2018-07-12 15:38:18,1,1
225,97,CourseTemplate,31,,2018-07-12 15:38:22.199786,2018-07-12 15:38:23,1,1
244,5,ProgramSection,102,,2018-08-28 15:06:02.988344,2018-08-28 15:06:03,1,1
247,22,Task,102,,2018-08-28 15:06:03.196577,2018-08-28 15:06:03,1,1
264,14,CourseTemplate,102,,2018-08-28 15:06:07.053755,2018-08-28 15:06:07,1,1
269,1,CourseTemplate,102,,2018-08-28 15:06:08.573588,2018-08-28 15:06:08,1,1
277,280,CourseTemplate,31,2018-10-01 15:26:19.975129,2018-10-01 15:04:52.178648,2018-10-01 15:26:20,1,0
271,60,Task,102,,2018-08-29 15:19:21.546445,2018-08-29 15:19:21.692758,1,1
292,318,CourseTemplate,113,2018-10-17 16:16:05.586881,2018-10-17 16:11:58.651241,2018-10-17 16:16:05,1,0
297,101,CourseTemplate,102,,2018-12-14 02:10:18.026131,2018-12-14 02:10:18,1,1
281,291,CourseTemplate,31,2018-10-01 20:45:16.321993,2018-10-01 20:43:34.38312,2018-10-01 20:45:16,1,0
299,99,CourseTemplate,102,,2018-12-14 02:10:18.379053,2018-12-14 02:10:18,1,1
303,95,CourseTemplate,102,,2018-12-14 02:10:19.074649,2018-12-14 02:10:19,1,1
306,5,ProgramSection,141,,2019-05-22 18:47:18.207219,2019-05-22 18:47:18,1,1
308,3,ProgramSection,141,,2019-05-22 18:47:18.370678,2019-05-22 18:47:18,1,1
284,288,CourseTemplate,31,2018-10-04 11:06:59.425275,2018-10-04 11:04:35.900469,2018-10-04 11:06:59,1,0
328,3,CourseTemplate,141,,2019-05-22 18:47:23.767381,2019-05-22 18:47:23,1,1
290,282,CourseTemplate,31,2018-10-04 11:08:37.874868,2018-10-04 11:05:14.697162,2018-10-04 11:08:37,1,0
330,8,CourseTemplate,141,,2019-05-22 18:47:24.220267,2019-05-22 18:47:24,1,1
331,1,CourseTemplate,141,,2019-05-22 18:47:24.491029,2019-05-22 18:47:24,1,1
333,5,ProgramSection,31,2019-08-21 15:23:43.500698,2019-08-20 17:12:01.370942,2019-08-21 15:23:43,0,0
335,3,ProgramSection,31,2019-08-21 15:23:43.666234,2019-08-20 17:12:01.532926,2019-08-21 15:23:43,0,0
343,12,CourseTemplate,31,2019-08-21 15:23:44.921903,2019-08-20 17:12:03.023531,2019-08-21 15:23:44,0,0
355,3,CourseTemplate,31,2019-08-21 15:23:47.477119,2019-08-20 17:12:07.108723,2019-08-21 15:23:47,0,0
223,99,CourseTemplate,31,,2018-07-12 15:38:19.085222,2018-07-12 15:38:20,1,1
228,93,CourseTemplate,31,,2018-07-12 15:38:27.70059,2018-07-12 15:38:29,1,1
245,4,ProgramSection,102,,2018-08-28 15:06:03.056921,2018-08-28 15:06:03,1,1
265,9,CourseTemplate,102,,2018-08-28 15:06:07.382568,2018-08-28 15:06:07,1,1
267,2,CourseTemplate,102,,2018-08-28 15:06:07.961299,2018-08-28 15:06:08,1,1
268,8,CourseTemplate,102,,2018-08-28 15:06:08.404208,2018-08-28 15:06:08,1,1
278,279,CourseTemplate,31,2018-10-01 15:27:17.591779,2018-10-01 15:04:56.663612,2018-10-01 15:27:17,1,0
272,61,Task,102,,2018-08-29 15:20:34.688294,2018-08-29 15:20:34.789373,1,1
293,317,CourseTemplate,113,2018-10-17 16:16:10.712458,2018-10-17 16:12:03.436487,2018-10-17 16:16:10,1,0
298,100,CourseTemplate,102,,2018-12-14 02:10:18.195853,2018-12-14 02:10:18,1,1
282,290,CourseTemplate,31,2018-10-01 20:45:28.263705,2018-10-01 20:43:37.916584,2018-10-01 20:45:28,1,0
300,98,CourseTemplate,102,,2018-12-14 02:10:18.535297,2018-12-14 02:10:18,1,1
301,97,CourseTemplate,102,,2018-12-14 02:10:18.73,2018-12-14 02:10:18,1,1
285,287,CourseTemplate,31,2018-10-04 11:07:03.389529,2018-10-04 11:04:40.493459,2018-10-04 11:07:03,1,0
307,4,ProgramSection,141,,2019-05-22 18:47:18.287935,2019-05-22 18:47:18,1,1
310,12,Task,141,,2019-05-22 18:47:18.865613,2019-05-22 18:47:18,1,1
314,16,CourseTemplate,141,,2019-05-22 18:47:19.583168,2019-05-22 18:47:19,1,1
334,4,ProgramSection,31,2019-08-21 15:23:43.585033,2019-08-20 17:12:01.474664,2019-08-21 15:23:43,0,0
337,12,Task,31,2019-08-21 15:23:43.854513,2019-08-20 17:12:01.673182,2019-08-21 15:23:43,0,0
338,14,Task,31,2019-08-21 15:23:43.946433,2019-08-20 17:12:01.752728,2019-08-21 15:23:43,0,0
344,18,CourseTemplate,31,2019-08-21 15:23:45.126284,2019-08-20 17:12:03.311332,2019-08-21 15:23:45,0,0
345,11,CourseTemplate,31,2019-08-21 15:23:45.335982,2019-08-20 17:12:03.674925,2019-08-21 15:23:45,0,0
224,98,CourseTemplate,31,,2018-07-12 15:38:20.683237,2018-07-12 15:38:21,1,1
246,3,ProgramSection,102,,2018-08-28 15:06:03.122244,2018-08-28 15:06:03,1,1
250,13,Task,102,,2018-08-28 15:06:03.531783,2018-08-28 15:06:03,1,1
251,19,CourseTemplate,102,,2018-08-28 15:06:03.64074,2018-08-28 15:06:03,1,1
253,13,CourseTemplate,102,,2018-08-28 15:06:04.14109,2018-08-28 15:06:04,1,1
256,11,CourseTemplate,102,,2018-08-28 15:06:04.81207,2018-08-28 15:06:05,1,1
261,17,CourseTemplate,102,,2018-08-28 15:06:06.14982,2018-08-28 15:06:06,1,1
279,276,CourseTemplate,31,2018-10-01 15:27:52.635071,2018-10-01 15:05:01.515861,2018-10-01 15:27:52,1,0
294,316,CourseTemplate,113,2018-10-17 16:16:15.757161,2018-10-17 16:12:07.441655,2018-10-17 16:16:15,1,0
302,96,CourseTemplate,102,,2018-12-14 02:10:18.902419,2018-12-14 02:10:19,1,1
286,286,CourseTemplate,31,2018-10-04 11:07:07.51607,2018-10-04 11:04:43.642782,2018-10-04 11:07:07,1,0
309,22,Task,141,,2019-05-22 18:47:18.724501,2019-05-22 18:47:18,1,1
311,14,Task,141,,2019-05-22 18:47:19.003957,2019-05-22 18:47:19,1,1
312,13,Task,141,,2019-05-22 18:47:19.145876,2019-05-22 18:47:19,1,1
313,19,CourseTemplate,141,,2019-05-22 18:47:19.305108,2019-05-22 18:47:19,1,1
324,5,CourseTemplate,141,,2019-05-22 18:47:22.162288,2019-05-22 18:47:22,1,1
326,14,CourseTemplate,141,,2019-05-22 18:47:23.311496,2019-05-22 18:47:23,1,1
336,22,Task,31,2019-08-21 15:23:43.765049,2019-08-20 17:12:01.594809,2019-08-21 15:23:43,0,0
342,13,CourseTemplate,31,2019-08-21 15:23:44.711676,2019-08-20 17:12:02.658541,2019-08-21 15:23:44,0,0
349,10,CourseTemplate,31,2019-08-21 15:23:46.193407,2019-08-20 17:12:05.029084,2019-08-21 15:23:46,0,0
350,17,CourseTemplate,31,2019-08-21 15:23:46.404902,2019-08-20 17:12:05.394513,2019-08-21 15:23:46,0,0
351,5,CourseTemplate,31,2019-08-21 15:23:46.633897,2019-08-20 17:12:05.693583,2019-08-21 15:23:46,0,0
352,4,CourseTemplate,31,2019-08-21 15:23:46.845546,2019-08-20 17:12:06.119415,2019-08-21 15:23:46,0,0
353,14,CourseTemplate,31,2019-08-21 15:23:47.053794,2019-08-20 17:12:06.421917,2019-08-21 15:23:47,0,0
356,2,CourseTemplate,31,2019-08-21 15:23:47.686045,2019-08-20 17:12:07.434482,2019-08-21 15:23:47,0,0
357,8,CourseTemplate,31,2019-08-21 15:23:47.89242,2019-08-20 17:12:07.785003,2019-08-21 15:23:47,0,0
226,96,CourseTemplate,31,,2018-07-12 15:38:24.36521,2018-07-12 15:38:25,1,1
248,12,Task,102,,2018-08-28 15:06:03.31683,2018-08-28 15:06:03,1,1
255,18,CourseTemplate,102,,2018-08-28 15:06:04.597259,2018-08-28 15:06:04,1,1
258,7,CourseTemplate,102,,2018-08-28 15:06:05.356717,2018-08-28 15:06:05,1,1
259,6,CourseTemplate,102,,2018-08-28 15:06:05.598112,2018-08-28 15:06:05,1,1
260,10,CourseTemplate,102,,2018-08-28 15:06:05.851338,2018-08-28 15:06:06,1,1
266,3,CourseTemplate,102,,2018-08-28 15:06:07.692783,2018-08-28 15:06:07,1,1
287,285,CourseTemplate,31,2018-10-04 11:07:39.119155,2018-10-04 11:05:01.211561,2018-10-04 11:07:39,1,0
295,315,CourseTemplate,113,2018-10-17 16:16:19.737872,2018-10-17 16:12:11.666668,2018-10-17 16:16:19,1,0
304,93,CourseTemplate,102,,2018-12-14 02:10:19.236548,2018-12-14 02:10:19,1,1
315,13,CourseTemplate,141,,2019-05-22 18:47:19.857786,2019-05-22 18:47:20,1,1
316,12,CourseTemplate,141,,2019-05-22 18:47:20.114959,2019-05-22 18:47:20,1,1
318,11,CourseTemplate,141,,2019-05-22 18:47:20.625456,2019-05-22 18:47:20,1,1
327,9,CourseTemplate,141,,2019-05-22 18:47:23.546377,2019-05-22 18:47:23,1,1
339,13,Task,31,2019-08-21 15:23:44.035389,2019-08-20 17:12:01.835626,2019-08-21 15:23:44,0,0
341,16,CourseTemplate,31,2019-08-21 15:23:44.495255,2019-08-20 17:12:02.263853,2019-08-21 15:23:44,0,0
347,7,CourseTemplate,31,2019-08-21 15:23:45.769719,2019-08-20 17:12:04.368602,2019-08-21 15:23:45,0,0
358,1,CourseTemplate,31,2019-08-21 15:23:48.105881,2019-08-20 17:12:08.099752,2019-08-21 15:23:48,0,0
227,95,CourseTemplate,31,,2018-07-12 15:38:26.051057,2018-07-12 15:38:27,1,1
187,99,CourseTemplate,65,,2018-05-18 19:55:56.950592,2018-05-18 19:55:56,1,1
151,101,CourseTemplate,2,,2018-05-07 16:19:17.346272,2018-05-07 16:19:17,1,1
152,100,CourseTemplate,2,,2018-05-07 16:19:17.445736,2018-05-07 16:19:17,1,1
153,99,CourseTemplate,2,,2018-05-07 16:19:17.529785,2018-05-07 16:19:17,1,1
154,98,CourseTemplate,2,,2018-05-07 16:19:17.620705,2018-05-07 16:19:17,1,1
155,97,CourseTemplate,2,,2018-05-07 16:19:17.709421,2018-05-07 16:19:17,1,1
156,96,CourseTemplate,2,,2018-05-07 16:19:17.803886,2018-05-07 16:19:17,1,1
157,95,CourseTemplate,2,,2018-05-07 16:19:17.897593,2018-05-07 16:19:17,1,1
158,93,CourseTemplate,2,,2018-05-07 16:19:17.990328,2018-05-07 16:19:18,1,1
150,9,Program,2,,2018-05-07 16:19:17.182172,2018-05-07 16:19:18.070093,1,1
249,14,Task,102,,2018-08-28 15:06:03.417027,2018-08-28 15:06:03,1,1
188,98,CourseTemplate,65,,2018-05-18 19:55:57.062632,2018-05-18 19:55:57,1,1
257,15,CourseTemplate,102,,2018-08-28 15:06:05.102892,2018-08-28 15:06:05,1,1
317,18,CourseTemplate,141,,2019-05-22 18:47:20.364104,2019-05-22 18:47:20,1,1
178,147,CourseTemplate,31,2018-05-11 20:57:48.513528,2018-05-10 20:51:43.015793,2018-05-11 20:57:48,1,0
189,97,CourseTemplate,65,,2018-05-18 19:55:57.177624,2018-05-18 19:55:57,1,1
319,15,CourseTemplate,141,,2019-05-22 18:47:20.875317,2019-05-22 18:47:21,1,1
177,148,CourseTemplate,31,2018-05-11 20:57:53.816037,2018-05-10 20:51:42.950332,2018-05-11 20:57:53,1,0
288,284,CourseTemplate,31,2018-10-04 11:08:27.863949,2018-10-04 11:05:05.327223,2018-10-04 11:08:27,1,0
173,152,CourseTemplate,31,2018-05-11 20:58:03.267744,2018-05-10 20:51:42.656721,2018-05-11 20:58:03,1,0
190,96,CourseTemplate,65,,2018-05-18 19:55:57.285405,2018-05-18 19:55:57,1,1
320,7,CourseTemplate,141,,2019-05-22 18:47:21.127567,2019-05-22 18:47:21,1,1
171,154,CourseTemplate,31,2018-05-11 20:58:07.844306,2018-05-10 20:51:42.519414,2018-05-11 20:58:07,1,0
325,4,CourseTemplate,141,,2019-05-22 18:47:23.060114,2019-05-22 18:47:23,1,1
170,155,CourseTemplate,31,2018-05-11 20:58:12.988605,2018-05-10 20:51:42.456451,2018-05-11 20:58:13,1,0
191,95,CourseTemplate,65,,2018-05-18 19:55:57.383643,2018-05-18 19:55:57,1,1
340,19,CourseTemplate,31,2019-08-21 15:23:44.227823,2019-08-20 17:12:01.919133,2019-08-21 15:23:44,0,0
192,93,CourseTemplate,65,,2018-05-18 19:55:57.473097,2018-05-18 19:55:57,1,1
184,9,Program,65,,2018-05-18 19:55:56.619361,2018-05-18 19:55:57.557032,1,1
354,9,CourseTemplate,31,2019-08-21 15:23:47.261188,2019-08-20 17:12:06.791819,2019-08-21 15:23:47,0,0
172,153,CourseTemplate,31,2018-05-11 20:58:16.934222,2018-05-10 20:51:42.589045,2018-05-11 20:58:16,1,0
182,143,CourseTemplate,31,2018-05-11 20:56:10.800231,2018-05-10 20:51:43.291942,2018-05-11 20:56:10,1,0
183,142,CourseTemplate,31,2018-05-11 20:56:45.843517,2018-05-10 20:51:43.369316,2018-05-11 20:56:45,1,0
174,151,CourseTemplate,31,2018-05-11 20:58:21.287768,2018-05-10 20:51:42.721186,2018-05-11 20:58:21,1,0
181,144,CourseTemplate,31,2018-05-11 20:56:50.898925,2018-05-10 20:51:43.214935,2018-05-11 20:56:50,1,0
180,145,CourseTemplate,31,2018-05-11 20:56:57.003559,2018-05-10 20:51:43.149662,2018-05-11 20:56:57,1,0
176,149,CourseTemplate,31,2018-05-11 20:57:01.022093,2018-05-10 20:51:42.881893,2018-05-11 20:57:01,1,0
175,150,CourseTemplate,31,2018-05-11 20:57:39.246694,2018-05-10 20:51:42.788386,2018-05-11 20:57:39,1,0
179,146,CourseTemplate,31,2018-05-11 20:57:43.693823,2018-05-10 20:51:43.080689,2018-05-11 20:57:43,1,0
160,160,CourseTemplate,31,2018-05-11 20:58:28.329597,2018-05-10 20:01:14.343915,2018-05-11 20:58:28,1,0
169,156,CourseTemplate,31,2018-05-11 20:58:41.191961,2018-05-10 20:51:42.389997,2018-05-11 20:58:41,1,0
163,157,CourseTemplate,31,2018-05-11 20:58:46.105758,2018-05-10 20:02:33.34748,2018-05-11 20:58:46,1,0
162,158,CourseTemplate,31,2018-05-11 20:58:50.535259,2018-05-10 20:02:22.555923,2018-05-11 20:58:50,1,0
161,159,CourseTemplate,31,2018-05-11 20:58:56.646752,2018-05-10 20:02:14.835417,2018-05-11 20:58:56,1,0
185,101,CourseTemplate,65,,2018-05-18 19:55:56.765357,2018-05-18 19:55:56,1,1
186,100,CourseTemplate,65,,2018-05-18 19:55:56.859553,2018-05-18 19:55:56,1,1
