id,title,estimated_time,user_id,created_at,updated_at,passing_threshold,published_at,has_unpublished_changes,has_certificate,external_id,draft_external_id,external_status,course_type,domain_id,deleted_at,attachments_count,sub_account_id,open_book,description,third_party_course_id,external_course_id,quizzes_count,external_status_message,manual_estimated_time,show_correct_response,max_quiz_attempts,continuing_education_credits,archived_at,source_attachment_id,config,unpublished_at
50,0. Welcome!,3,2,2017-11-27 15:02:18.916859,2017-11-27 15:11:21.20703,0,2017-08-18 18:06:50.762,f,f,,,0,0,6,,3,6,,"",,,0,,f,t,,,,,,
52,11. Cultural Surprises and Irritations,12,2,2017-11-27 15:02:42.482421,2017-11-27 15:12:58.002257,0,2017-10-06 14:49:43.645257,f,f,,,0,0,6,,0,6,,,,,12,,t,t,,,,,,
38,4. Stereotypes & Generalizations,20,2,2017-10-26 14:59:06.146634,2018-07-02 18:45:58.480815,0,2018-07-02 18:45:58.370659,f,f,,,0,0,2,,2,2,,"",,,9,,t,t,,,,,{},
281,NQT 1.4 - Learning Program Curriculum,12,1,2018-09-28 22:05:12.444328,2018-09-28 22:05:12.965818,80,2018-09-28 19:03:49.747,f,f,,,0,0,1,2018-10-01 15:26:03.192432,0,1,,,,,0,,f,t,,,,,{},
25,"10. ""Them"" as Cultural Beings",18,2,2017-10-26 14:58:26.478352,2018-07-02 18:55:44.054033,0,2018-07-02 18:55:43.966571,f,f,,,0,0,2,,0,2,,,,,0,,t,t,,,,,{},
54,"13. Describe, Interpret, and Evaluate",14,2,2017-11-27 15:02:48.279401,2017-11-27 15:15:50.819236,0,2017-10-06 15:00:06.148441,f,f,,,0,0,6,,1,6,,,,,12,,f,t,,,,,,
10,6. Communication Styles,14,1,2017-09-13 16:33:23.883116,2018-04-12 17:21:12.166561,0,2017-10-06 15:22:58.081362,f,f,,,0,0,1,,0,1,,,,,8,,f,t,,,,,,
16,14. More Cultural Values,13,1,2017-09-13 16:37:38.74231,2017-10-06 15:38:09.917446,0,2017-10-06 15:22:02.730758,f,f,,,0,0,1,,0,1,,,,,12,,f,t,,,,,,
17,15. Dealing with Conflict,16,1,2017-09-13 16:38:35.21338,2017-10-06 15:38:22.408625,0,2017-08-21 18:15:32.006,f,f,,,0,0,1,,0,1,,,,,14,,f,t,,,,,,
8,0. Welcome!,3,1,2017-09-13 16:31:31.819638,2019-02-05 19:26:01.294379,0,2017-08-18 18:06:50.762,t,f,,,0,0,1,,3,1,,"",,,0,,f,t,,,,,{},
139,Power and Privilege,11,2,2018-04-27 14:27:02.867741,2018-04-27 14:29:50.583597,0,2018-04-27 14:29:50.480914,f,f,,,0,0,49,,0,49,,,,,0,,f,t,,,,,,
22,Bridge: Welcome to the New Global Nav,4,1,2017-10-25 21:39:10.298092,2017-10-25 21:39:11.009679,80,2017-09-14 18:09:59.454,f,f,,,0,0,1,,3,1,,,,,0,,f,t,,,,,,
161,,,,2018-05-10 23:57:16.593932,2018-05-10 23:57:17.41048,80,,t,f,,,0,0,31,2018-05-10 23:57:41.862346,0,31,,,,,0,,f,t,,,,,{},
239,Governance - 11. Board Evaluation,13,2,2018-07-12 15:56:16.755352,2019-02-11 21:43:13.164904,0,2019-02-11 21:43:12.996438,f,f,,,0,0,31,,2,31,,,,,0,,f,t,,,,,{},
20,Bridge: Arc Demo,3,1,2017-09-29 17:49:28.793218,2017-09-29 18:18:26.836021,80,2017-09-29 18:18:26.761994,f,f,,,0,0,1,,0,1,,,,,0,,f,t,,,,,,
13,16. Power and Privilege,11,1,2017-09-13 16:35:40.397357,2018-05-15 20:47:43.733549,0,2018-05-15 20:47:43.585393,f,f,,,0,0,1,,0,1,,,,,0,,f,t,,,,,{},
69,19. Spinning Career Gold,34,2,2017-12-01 19:27:12.972852,2018-08-29 14:45:42.503365,0,2018-08-29 14:45:42.411512,f,f,,,0,0,2,,2,2,,,,,0,,t,t,,,,,{},
141,Taking Action,9,2,2018-04-27 14:30:19.638325,2018-04-27 14:31:29.808468,0,2018-04-27 14:31:29.705265,f,f,,,0,0,49,,0,49,,,,,11,,f,t,,,,,,
29,14. More Cultural Values,23,2,2017-10-26 14:58:40.518422,2018-06-25 17:31:10.209563,0,2018-06-25 17:31:10.104362,f,f,,,0,0,2,,0,2,,,,,18,,t,t,,,,,{},
225,09. How to Cope with Challenge.,17,2,2018-06-01 19:28:33.684072,2019-02-12 13:45:04.046886,0,2019-02-12 13:45:03.982533,f,f,,,0,0,2,,0,2,,,,,0,,t,t,,,,,{},
35,1. Roadmap,30,2,2017-10-26 14:58:58.392692,2018-06-07 13:47:40.612749,0,2018-06-07 13:47:40.538376,f,f,,,0,0,2,,0,2,,,,,0,,t,f,,,,,{},
31,16. Power and Privilege,21,2,2017-10-26 14:58:45.943555,2018-06-25 19:17:57.612689,0,2018-06-25 19:17:57.559828,f,f,,,0,0,2,,0,2,,"",,,0,,t,t,,,,,{},
37,"3. ""Me"" as a Cultural Being",22,2,2017-10-26 14:59:03.592601,2018-06-07 13:50:33.193144,0,2018-06-07 13:50:33.130691,f,f,,,0,0,2,,0,2,,,,,12,,t,t,,,,,{},
11,7. When Cultures Collide,14,1,2017-09-13 16:33:48.373974,2018-04-12 17:21:59.900465,0,2017-08-18 20:36:50.241,f,f,,,0,0,1,,0,1,,"",,,10,,f,t,,,,,,
21,Bridge: Arc Demo 2,,1,2017-09-29 18:09:42.530379,2017-09-29 18:09:51.681071,80,,t,f,,,0,0,1,2017-09-29 18:42:23.40341,0,1,,,,,0,,f,t,,,,,,
23,17. Professions in the Public Eye,33,2,2017-10-26 14:18:13.776369,2018-06-25 19:52:39.763256,0,2018-06-25 19:52:39.577832,f,f,,,0,0,2,,0,2,,,,,0,,t,t,,,,,{},
70,,1,2,2017-12-05 16:55:03.058848,2017-12-05 16:55:16.254525,80,2017-12-05 16:55:16.189701,f,f,,,0,0,5,2017-12-05 16:56:17.273745,0,5,,,,,0,,f,t,,,,,,
203,,0,2,2018-05-24 22:20:31.10456,2018-05-24 22:24:27.188283,80,2018-05-24 22:24:27.114028,f,f,,,0,0,49,2018-05-25 14:50:18.411345,0,49,,,,,0,,f,t,,,,,{},
130,9. Cómo enfrentar los retos,7,2,2018-03-20 18:14:36.800502,2019-02-07 15:15:58.718664,0,2019-02-07 15:15:58.642133,f,f,,,0,0,1,,0,1,,,,,0,,f,t,,,,,{},
45,DEMO - Making Sense of the Experience,5,2,2017-11-08 21:11:28.20097,2017-12-05 19:57:41.647195,0,2017-12-05 19:57:41.367436,f,f,,,0,0,5,,1,5,,,,,0,,f,t,,,,,,
3,9. How to Cope with Challenge,7,1,2017-09-13 16:30:43.385368,2019-02-07 15:16:45.27675,0,2019-02-07 15:16:45.184475,f,f,,,0,0,1,,0,1,,,,,0,,f,t,,,,,{},
49,DEMO - End,4,2,2017-11-08 21:28:18.038793,2017-11-08 22:08:04.116017,0,2017-11-08 22:08:04.008469,f,f,,,0,0,5,,1,5,,,,,0,,f,t,,,,,,
7,"10. ""Them"" as Cultural Beings:",8,1,2017-09-13 16:31:22.252372,2018-07-30 17:37:58.368861,0,2018-07-30 17:37:58.233446,f,f,,,0,0,1,,0,1,,,,,0,,f,t,,,,,{},
51,"10. ""Them"" as Cultural Beings",8,2,2017-11-27 15:02:37.804362,2017-11-27 15:12:18.525965,0,2017-08-18 20:46:32.21,f,f,,,0,0,6,,0,6,,,,,0,,f,t,,,,,,
53,12. Navigating Culture,10,2,2017-11-27 15:02:45.3555,2017-11-27 15:14:19.380534,0,2017-10-26 14:53:22.156983,f,f,,,0,0,6,,0,6,,,,,0,,f,t,,,,,,
55,14. More Cultural Values,13,2,2017-11-27 15:02:51.454127,2017-11-27 15:16:58.352264,0,2017-10-06 15:22:02.730758,f,f,,,0,0,6,,0,6,,,,,18,,f,t,,,,,,
56,15. Dealing with Conflict,16,2,2017-11-27 15:02:56.710321,2017-11-27 15:17:45.161929,0,2017-08-21 18:15:32.006,f,f,,,0,0,6,,0,6,,,,,21,,f,t,,,,,,
57,16. Power and Privilege,11,2,2017-11-27 15:03:01.679892,2017-11-27 15:18:21.620721,0,2017-10-06 15:32:32.913616,f,f,,,0,0,6,,0,6,,,,,0,,f,t,,,,,,
1,1. Roadmap,20,1,2017-09-13 16:30:28.390336,2018-04-12 17:16:47.292829,0,2018-04-12 17:16:46.851767,f,f,,,0,0,1,,0,1,,,,,0,,t,f,,,,,,
58,17. Making Sense of the Experience,5,2,2017-11-27 15:03:06.268255,2017-11-27 15:18:58.468967,0,2017-08-21 18:48:21.567,f,f,,,0,0,6,,1,6,,,,,0,,f,t,,,,,,
2,2. Metaphors of Culture,18,1,2017-09-13 16:30:35.837787,2018-04-12 17:19:07.470679,0,2017-10-06 14:33:10.375648,f,f,,,0,0,1,,0,1,,,,,1,,t,t,,,,,,
201,My Expectations,4,2,2018-05-24 16:23:24.725308,2018-05-30 15:26:47.14624,0,2018-05-30 15:26:47.048148,f,f,,,0,0,49,,0,49,,,,,0,,f,t,,,,,{},
4,8. Balancing Challenge and Support,11,1,2017-09-13 16:30:53.757234,2018-04-12 17:23:20.094481,0,2018-04-12 17:23:19.970419,f,f,,,0,0,1,,0,1,,,,,13,,f,t,,,,,,
14,11. Cultural Surprises and Irritations,12,1,2017-09-13 16:36:25.086817,2018-04-12 17:25:08.540561,0,2017-10-06 14:49:43.645257,f,f,,,0,0,1,,0,1,,,,,8,,t,t,,,,,,
12,12. Navigating Culture,10,1,2017-09-13 16:34:45.512816,2018-04-12 17:27:26.247408,0,2017-10-26 14:53:22.156983,f,f,,,0,0,1,,0,1,,,,,0,,f,t,,,,,,
18,17. Making Sense of the Experience,5,1,2017-09-13 16:39:39.609854,2018-04-12 17:30:50.555756,0,2017-08-21 18:48:21.567,f,f,,,0,0,1,,1,1,,,,,0,,f,t,,,,,,
19,18. Taking Action,9,1,2017-09-13 16:39:48.502422,2018-04-12 17:32:01.240464,0,2018-04-12 17:32:01.107817,f,f,,,0,0,1,,0,1,,,,,11,,f,t,,,,,,
59,18. Taking Action,9,2,2017-11-27 15:03:10.286003,2017-11-27 15:20:54.315633,0,2017-10-06 15:35:02.510505,f,f,,,0,0,6,,0,6,,,,,11,,f,t,,,,,,
60,1. Roadmap,20,2,2017-11-27 15:03:13.207868,2017-11-27 15:22:06.419448,0,2017-10-06 14:28:00.41876,f,f,,,0,0,6,,0,6,,,,,0,,t,f,,,,,,
317,LIFT 1.3 Leaders in AFS,1,1,2018-10-17 14:06:11.956738,2018-10-17 14:06:12.601926,0,2018-10-12 18:26:17.045,f,f,,,0,0,1,2018-10-17 16:16:10.712458,0,1,,,,,0,,f,f,,,,,{},
44,DEMO - Stereotypes & Generalizations,10,2,2017-11-08 21:11:14.209104,2017-12-05 19:57:22.23497,0,2017-12-05 19:57:22.082087,f,f,,,0,0,5,,0,5,,"",,,9,,f,t,,,,,,
41,7. When Cultures Collide,24,2,2017-10-26 14:59:16.841787,2018-06-18 14:40:08.355111,0,2018-06-18 14:40:08.284832,f,f,,,0,0,2,,0,2,,,,,15,,t,t,,,,,{},
33,20. Taking Action,19,2,2017-10-26 14:58:51.597904,2018-07-06 16:40:43.792359,0,2018-07-06 16:40:43.636699,f,f,,,0,0,2,,1,2,,,,,11,,t,t,,,,,{},
34,Z9. Employabilty,0,2,2017-10-26 14:58:54.221078,2017-10-26 15:06:07.256549,0,2017-10-26 14:18:35.194176,f,f,,,0,0,2,2017-10-26 15:07:40.275752,4,2,,,,,0,,f,t,,,,,,
46,"DEMO - Describe, Interpret, and Evaluate",14,2,2017-11-08 21:11:44.64796,2017-12-05 19:58:07.125655,0,2017-12-05 19:58:07.012684,f,f,,,0,0,5,,1,5,,,,,12,,f,t,,,,,,
137,Communication Styles,14,2,2018-04-27 14:26:20.906506,2018-04-27 14:26:27.764178,0,2017-10-06 15:22:58.081362,f,f,,,0,0,49,,0,49,,,,,12,,f,t,,,,,,
47,DEMO - Cultural Suprises and Irritations,12,2,2017-11-08 21:12:08.30467,2017-12-05 19:58:19.983997,0,2017-12-05 19:58:19.901783,f,f,,,0,0,5,,0,5,,,,,12,,t,t,,,,,,
207,12. Navigating Culture.,20,2,2018-06-01 18:39:20.720239,2018-07-13 18:01:24.495688,0,2018-07-13 18:01:24.434821,f,f,,,0,0,2,,0,2,,,,,0,,t,t,,,,,{},
27,12. Navigating Culture,20,2,2017-10-26 14:58:35.113584,2018-06-21 13:46:16.249021,0,2018-06-21 13:46:16.176864,f,f,,,0,0,2,,0,2,,,,,0,,t,t,,,,,{},
61,2. Metaphors of Culture,18,2,2017-11-27 15:03:15.642208,2017-11-27 15:22:23.137159,0,2017-10-06 14:33:10.375648,f,f,,,0,0,6,,0,6,,"",,,1,,t,t,,,,,,
71,Supplemental Resources to GCC,1,2,2017-12-05 16:56:32.618552,2018-01-22 15:34:36.845362,0,2018-01-22 15:34:36.792718,f,f,,,0,0,2,,2,2,,,,,0,,f,t,,,,,,
62,"3. ""Me"" as a Cultural Being",12,2,2017-11-27 15:03:17.772319,2017-11-27 15:22:38.115978,0,2017-08-18 19:58:10.546,f,f,,,0,0,6,,0,6,,,,,12,,f,t,,,,,,
63,4. Stereotypes & Generalizations,10,2,2017-11-27 15:03:19.535182,2017-11-27 15:22:47.786043,0,2017-08-18 20:09:50.074,f,f,,,0,0,6,,0,6,,"",,,9,,f,t,,,,,,
64,5. Cultural Values,16,2,2017-11-27 15:03:21.186281,2017-11-27 15:22:59.799582,0,2017-10-06 15:22:25.752959,f,f,,,0,0,6,,0,6,,,,,12,,f,t,,,,,,
65,6. Communication Styles,14,2,2017-11-27 15:03:22.897045,2017-11-27 15:23:13.923121,0,2017-10-06 15:22:58.081362,f,f,,,0,0,6,,0,6,,,,,12,,f,t,,,,,,
66,7. When Cultures Collide,14,2,2017-11-27 15:03:24.451142,2017-11-27 15:23:17.271622,0,2017-08-18 20:36:50.241,f,f,,,0,0,6,,0,6,,,,,15,,f,t,,,,,,
67,8. Balancing Challenge and Support,11,2,2017-11-27 15:03:26.619444,2017-11-27 15:23:26.743666,0,2017-10-06 14:43:20.325574,f,f,,,0,0,6,,0,6,,,,,16,,f,t,,,,,,
162,LDP 1.1 Welcome to the LDP online course!,3,2,2018-05-11 20:50:20.22506,2019-05-06 14:19:55.440545,100,2019-05-06 14:19:55.238465,f,f,,,0,0,31,,1,31,,,,,0,,f,f,,,,,{},
28,"13. Describe, Interpret, and Evaluate",24,2,2017-10-26 14:58:37.659261,2018-06-21 18:00:19.77329,0,2018-06-21 18:00:19.686652,f,f,,,0,0,2,,1,2,,,,,12,,t,t,,,,,{},
251,Program Evaluation,1,2,2018-07-13 18:13:13.778638,2018-07-13 18:33:51.96451,0,2018-07-13 18:33:45.33618,f,f,,,0,0,49,,0,49,,,,,0,,f,t,,,,,{},
109,Metaphors of Culture,18,2,2018-03-20 14:27:50.700213,2018-03-20 14:28:05.491107,0,2017-10-06 14:33:10.375648,f,f,,,0,0,31,,0,31,,"",,,1,,t,t,,,,,,
5,4. Stereotypes & Generalizations,10,1,2017-09-13 16:31:02.397238,2018-04-12 17:20:09.537828,0,2017-08-18 20:09:50.074,f,f,,,0,0,1,,0,1,,"",,,6,,f,t,,,,,,
42,8. Balancing Challenge and Support,21,2,2017-10-26 14:59:19.793914,2018-06-18 14:41:50.756427,0,2018-06-18 14:41:50.672633,f,f,,,0,0,2,,0,2,,,,,16,,t,t,,,,,{},
374,,,3,2019-05-16 14:58:31.427025,2019-05-16 14:58:31.927356,80,,t,f,,,0,0,1,2019-09-04 15:55:30.200038,0,1,,,,,0,,f,t,,,,,{},
132,17. Makin,,2,2018-04-12 17:29:53.604185,2018-04-12 17:29:54.428978,80,,t,f,,,0,0,1,,0,1,,,,,0,,f,t,,,,,,
116,Taking Action,9,2,2018-03-20 14:29:45.146929,2018-03-20 14:29:49.258749,0,2017-10-06 15:35:02.510505,f,f,,,0,0,31,,0,31,,,,,11,,f,t,,,,,,
15,"13. Describe, Interpret, and Evaluate",14,1,2017-09-13 16:37:08.172156,2018-07-30 17:48:46.046716,0,2018-04-12 17:29:13.598651,f,f,,,0,0,1,,1,1,,"",,,8,,f,t,,,,,{},
24,0. Welcome!,13,2,2017-10-26 14:58:02.280782,2018-06-18 17:02:51.542189,0,2018-06-18 17:02:51.438215,f,f,,,0,0,2,,2,2,,"",,,0,,t,t,,,,,{},
368,,,3,2019-02-19 21:28:35.481029,2019-02-19 21:28:35.93797,80,,t,f,,,0,0,1,,0,1,,,,,3,,f,t,,,,,{},
115,Making Sense of the Experience,5,2,2018-03-20 14:29:29.340883,2018-03-20 14:29:32.638788,0,2017-08-21 18:48:21.567,f,f,,,0,0,31,,1,31,,,,,0,,f,t,,,,,,
76,2. Metáforas de Cultura,18,2,2018-02-05 15:24:07.903236,2018-02-07 15:15:10.84773,0,2018-02-07 15:15:10.770301,f,f,,,0,0,1,,0,1,,,,,1,,t,t,,,,,,
94,Request Enrollment,,2,2018-03-02 20:29:38.261,2018-03-02 20:29:38.826377,80,,t,f,,,0,0,1,2018-03-05 18:47:45.742937,0,1,,,,,0,,f,t,,,,,,
30,15. Dealing with Conflict,26,2,2017-10-26 14:58:43.158744,2018-06-25 17:47:00.164682,0,2018-06-25 17:47:00.066319,f,f,,,0,0,2,,0,2,,"",,,21,,t,t,,,,,{},
257,5. Les Valeurs Culturelles,16,2,2018-07-30 16:02:38.751595,2019-05-24 12:07:38.149567,0,2019-05-24 12:07:37.9794,f,f,,,0,0,1,,0,1,,,,,12,,f,t,,,,,"{""maintain_branding_in_sub_account"":false}",
111,Stereotypes & Generalizations,10,2,2018-03-20 14:28:22.344772,2018-03-20 14:28:26.942336,0,2017-08-18 20:09:50.074,f,f,,,0,0,31,,0,31,,"",,,9,,f,t,,,,,,
74,0. Bem vind@!,3,2,2018-02-05 15:12:27.530745,2018-02-08 20:29:10.946513,0,2018-02-08 20:29:10.817731,f,f,,,0,0,1,,3,1,,"",,,0,,f,t,,,,,,
375,,,3,2019-06-10 17:16:31.477559,2019-06-10 17:16:32.39521,80,,t,f,,,0,0,1,,0,1,,,,,2,,f,t,,,,,{},
104,"10. ""Ellos"" como entes culturales.",8,2,2018-03-19 15:21:26.358985,2018-03-19 15:26:52.083135,0,2018-03-19 15:26:51.962016,f,f,,,0,0,1,,0,1,,,,,0,,f,t,,,,,,
102,Copy of 0. Welcome!,13,2,2018-03-19 14:44:44.775891,2018-03-19 14:47:16.479059,0,2017-08-18 18:06:50.762,t,f,,,0,0,1,2018-03-19 14:48:04.893038,0,1,,"",,,0,,t,t,,,,,,
376,,,4349,2019-07-01 14:49:06.00712,2019-07-01 14:49:08.065693,80,,t,f,,,0,0,1,2019-07-01 15:25:35.676639,0,1,,,,,0,,f,t,,,,,{},
131,,,5,2018-04-02 21:06:48.013457,2018-04-02 21:06:48.77734,80,,t,f,,,0,0,1,2018-04-02 21:08:23.213104,0,1,,,,,0,,f,t,,,,,,
106,12. Navegando la cultura,10,400,2018-03-19 15:40:04.919444,2018-03-19 15:48:37.108994,0,2018-03-19 15:48:37.012583,f,f,,,0,0,1,,0,1,,,,,0,,f,t,,,,,,
36,2. Metaphors of Culture,28,2,2017-10-26 14:59:01.149897,2018-06-07 13:49:20.206793,0,2018-06-07 13:49:20.124611,f,f,,,0,0,2,,0,2,,,,,1,,t,t,,,,,{},
9,"3. ""Me"" as a Cultural Being",12,1,2017-09-13 16:32:25.981935,2018-04-12 17:19:39.435471,0,2017-08-18 19:58:10.546,f,f,,,0,0,1,,0,1,,,,,8,,f,t,,,,,,
258,6. Les styles de communication,14,2,2018-07-30 16:12:29.117613,2019-05-24 12:08:53.644985,0,2019-05-24 12:08:53.512054,f,f,,,0,0,1,,0,1,,"",,,12,,f,t,,,,,"{""maintain_branding_in_sub_account"":false}",
108,Roadmap,20,2,2018-03-20 14:27:13.937624,2018-03-20 14:27:23.413362,0,2017-10-06 14:28:00.41876,f,f,,,0,0,31,,0,31,,,,,0,,t,f,,,,,,
6,5. Cultural Values,16,1,2017-09-13 16:31:10.37526,2018-04-12 17:20:49.366812,0,2017-10-06 15:22:25.752959,f,f,,,0,0,1,,0,1,,,,,8,,f,t,,,,,,
180,LDP 4.5 Congratulations!,0,2,2018-05-11 20:53:35.645388,2019-05-06 14:53:24.422986,100,2018-04-27 21:30:13.276,t,f,,,0,0,31,,1,31,,,,,0,,t,f,,,,,{},
118,15. Manejando conflictos,16,2,2018-03-20 14:52:32.751608,2018-03-20 14:59:43.847292,0,2018-03-20 14:59:39.458756,f,f,,,0,0,1,,0,1,,,,,21,,f,t,,,,,,
80,6. Estilos de Comunicação,14,2,2018-02-05 15:41:18.572446,2018-02-07 15:20:45.092775,0,2018-02-07 15:20:44.938318,f,f,,,0,0,1,,0,1,,,,,12,,f,t,,,,,,
248,Governance - 9. Advocacy,18,2,2018-07-12 15:58:49.002152,2019-02-11 21:39:49.170879,0,2019-02-11 21:39:49.026123,f,f,,,0,0,31,,1,31,,,,,0,,f,t,,,,,{},
77,"3. ""Eu"" como Ser cultural",12,2,2018-02-05 15:26:40.238374,2018-02-07 15:21:23.121563,0,2018-02-07 15:21:23.00763,f,f,,,0,0,1,,0,1,,,,,12,,f,t,,,,,,
469,,,3,2019-10-23 16:53:17.481725,2019-10-23 16:53:18.555868,80,,t,f,,,0,0,1,,0,1,,,,,1,,f,t,,,,,{},
81,7. Quando culturas colidem,14,2,2018-02-05 16:17:32.778274,2018-02-07 15:21:56.230984,0,2018-02-07 15:21:56.115038,f,f,,,0,0,1,,0,1,,,,,15,,f,t,,,,,,
110,"""Me"" as a Cultural Being",12,2,2018-03-20 14:28:10.653048,2018-03-20 14:28:14.624302,0,2017-08-18 19:58:10.546,f,f,,,0,0,31,,0,31,,,,,12,,f,t,,,,,,
82,8. Balanceando desafio e suporte,11,2,2018-02-05 16:24:02.911315,2018-02-07 15:29:14.349628,0,2018-02-07 15:29:14.204744,f,f,,,0,0,1,,0,1,,,,,16,,f,t,,,,,,
135,"""Me"" as a Cultural Being",12,2,2018-04-27 14:25:39.391061,2018-04-27 14:25:44.41866,0,2017-08-18 19:58:10.546,f,f,,,0,0,49,,0,49,,,,,12,,f,t,,,,,,
448,,,400,2019-09-12 15:02:00.074825,2019-09-12 15:02:00.901675,80,,t,f,,,0,0,2,2019-09-12 15:02:17.817844,0,2,,,,,0,,f,t,,,,,{},
497,,,400,2019-10-30 21:10:24.761752,2019-10-30 21:10:25.63201,80,,t,f,,,0,0,233,2019-10-30 21:10:37.080646,0,233,,,,,0,,f,t,,,,,{},
134,Metaphors of Culture,18,2,2018-04-27 14:24:46.068473,2018-05-30 15:31:19.351263,0,2018-05-30 15:31:19.293853,f,f,,,0,0,49,,0,49,,,,,1,,t,t,,,,,{},
84,10. “Eles” como seres culturais,8,2,2018-02-05 16:35:12.433353,2018-02-07 15:32:01.809162,0,2018-02-07 15:32:01.689268,f,f,,,0,0,1,,0,1,,,,,0,,f,t,,,,,,
85,11. Surpresas e Irritações culturais,12,2,2018-02-05 16:38:13.043815,2018-02-07 15:32:25.850836,0,2018-02-07 15:32:25.762033,f,f,,,0,0,1,,0,1,,,,,12,,t,t,,,,,,
86,12. Navegando Cultura,10,2,2018-02-05 16:41:18.466258,2018-02-07 15:32:48.54867,0,2018-02-07 15:32:48.446087,f,f,,,0,0,1,,0,1,,,,,0,,f,t,,,,,,
133,Welcome to the BP Global STEM Academies,20,2,2018-04-27 14:21:40.987442,2019-06-24 14:57:31.090273,0,2019-06-24 14:57:31.019109,f,f,,,0,0,49,,0,49,,"",,,0,,t,f,,,,,{},
117,14. Más valores culturales,13,2,2018-03-20 14:43:25.48596,2018-03-20 14:52:00.232176,0,2018-03-20 14:52:00.087914,f,f,,,0,0,1,,0,1,,,,,18,,f,t,,,,,,
112,Communication Styles,14,2,2018-03-20 14:28:36.836807,2018-03-20 14:28:40.534954,0,2017-10-06 15:22:58.081362,f,f,,,0,0,31,,0,31,,,,,12,,f,t,,,,,,
103,0. Bienvenida,3,2,2018-03-19 15:17:35.827795,2018-03-19 15:19:17.037087,0,2018-03-19 15:19:16.886829,f,f,,,0,0,1,,3,1,,"",,,0,,f,t,,,,,,
87,"13. Descrever, Interpretar e Avaliar",14,2,2018-02-05 16:43:06.840311,2018-02-07 15:33:57.141228,0,2018-02-07 15:33:57.007439,f,f,,,0,0,1,,1,1,,,,,12,,f,t,,,,,,
88,14. Mais Valores Culturais,13,2,2018-02-05 16:49:21.262703,2018-02-07 15:34:47.366181,0,2018-02-07 15:34:47.193592,f,f,,,0,0,1,,0,1,,,,,18,,f,t,,,,,,
114,Power and Privilege,11,2,2018-03-20 14:29:05.112984,2018-03-20 14:29:14.535785,0,2017-10-06 15:32:32.913616,f,f,,,0,0,31,,0,31,,,,,0,,f,t,,,,,,
89,15. Lidando com conflitos,16,2,2018-02-05 16:53:52.098003,2018-02-07 15:35:06.472771,0,2018-02-07 15:35:06.300113,f,f,,,0,0,1,,0,1,,,,,21,,f,t,,,,,,
90,16. Poder e Privilégio,11,2,2018-02-05 16:59:20.64363,2018-02-07 15:37:30.768975,0,2018-02-07 15:37:30.66416,f,f,,,0,0,1,,0,1,,,,,0,,f,t,,,,,,
91,17. Entendendo a experiência,5,2,2018-02-05 17:09:42.861537,2018-02-07 15:37:59.037954,0,2018-02-07 15:37:58.929209,f,f,,,0,0,1,,1,1,,,,,0,,f,t,,,,,,
119,16. Poder y Privilegio,11,2,2018-03-20 15:00:19.838218,2018-03-20 15:35:44.382461,0,2018-03-20 15:35:44.262629,f,f,,,0,0,1,,0,1,,,,,0,,f,t,,,,,,
92,18. Agindo,10,2,2018-02-05 17:10:31.410462,2018-02-07 15:42:14.805548,0,2018-02-07 15:42:14.698708,f,f,,,0,0,1,,0,1,,,,,11,,f,t,,,,,,
377,LDP (esp) 1.1 Bienvenido/a al curso online LDP!,3,4349,2019-07-05 15:45:56.857973,2019-07-09 15:31:38.918745,100,2019-05-06 14:19:55.238465,t,f,,,0,0,1,,1,1,,,,,0,,f,f,,,2019-07-09 15:31:38.914599,,"{""maintain_branding_in_sub_account"":false}",
75,1. Mapa,20,2,2018-02-05 15:12:45.154149,2018-02-07 15:44:34.045753,0,2018-02-07 15:44:33.960076,f,f,,,0,0,1,,0,1,,,,,0,,t,f,,,,,,
120,17. Dándole sentido a la experiencia,5,2,2018-03-20 15:36:07.21278,2018-03-20 15:37:02.540134,0,2018-03-20 15:37:02.432249,f,f,,,0,0,1,,1,1,,,,,0,,f,t,,,,,,
78,4. Estereótipos & Generalizações,10,2,2018-02-05 15:31:47.138843,2018-02-07 15:45:28.614157,0,2018-02-07 15:45:28.489225,f,f,,,0,0,1,,0,1,,"",,,9,,f,t,,,,,,
107,"13. Describir, Interpretar y Evaluar",14,400,2018-03-19 15:51:46.917167,2018-03-19 16:00:22.646723,0,2018-03-19 16:00:22.510627,f,f,,,0,0,1,,1,1,,,,,12,,f,t,,,,,,
79,5. Valores Culturais,16,2,2018-02-05 15:35:51.374816,2018-02-07 15:45:48.425806,0,2018-02-07 15:45:48.30442,f,f,,,0,0,1,,0,1,,,,,12,,f,t,,,,,,
105,11. Sorpresas e irritaciones culturales,12,2,2018-03-19 15:27:37.894797,2018-03-19 15:33:12.726767,0,2018-03-19 15:33:12.658823,f,f,,,0,0,1,,0,1,,,,,12,,t,t,,,,,,
121,18. ¡Tomando acciones!,10,2,2018-03-20 15:37:54.773945,2018-03-20 15:49:22.797963,0,2018-03-20 15:49:22.611233,f,f,,,0,0,1,,0,1,,,,,11,,f,t,,,,,,
122,1. Mapa de ruta,20,2,2018-03-20 15:52:43.257556,2018-03-20 15:59:17.411199,0,2018-03-20 15:59:17.345443,f,f,,,0,0,1,,0,1,,,,,0,,t,f,,,,,,
123,2. Metáforas sobre la cultura,18,2,2018-03-20 16:08:01.67177,2018-03-20 16:09:09.972813,0,2018-03-20 16:09:09.904433,f,f,,,0,0,1,,0,1,,,,,1,,t,t,,,,,,
124,"3. ""Yo"" como un ente cultural",12,2,2018-03-20 16:09:56.613335,2018-03-20 16:12:38.816997,0,2018-03-20 16:12:38.684971,f,f,,,0,0,1,,0,1,,,,,12,,f,t,,,,,,
125,4. Estereotipos y Generalizaciones,10,2,2018-03-20 16:13:01.036174,2018-03-20 16:16:02.341864,0,2018-03-20 16:16:02.210456,f,f,,,0,0,1,,0,1,,"",,,9,,f,t,,,,,,
126,5. Valores Culturales,16,2,2018-03-20 16:16:25.139365,2018-03-20 16:20:09.297749,0,2018-03-20 16:20:09.149399,f,f,,,0,0,1,,0,1,,,,,12,,f,t,,,,,,
127,6. Estilos de comunicación,14,2,2018-03-20 16:20:35.068954,2018-03-20 16:23:47.625975,0,2018-03-20 16:23:47.481899,f,f,,,0,0,1,,0,1,,,,,12,,f,t,,,,,,
128,7. Cuando las culturas chocan,14,2,2018-03-20 16:24:13.005316,2018-03-20 18:04:27.077594,0,2018-03-20 18:04:26.947773,f,f,,,0,0,1,,0,1,,,,,15,,f,t,,,,,,
129,8. Haciendo un balance entre retos y soporte,11,2,2018-03-20 18:04:50.670566,2018-03-20 18:14:10.403632,0,2018-03-20 18:14:10.260112,f,f,,,0,0,1,,0,1,,,,,16,,f,t,,,,,,
265,"13. Décrire, Interpréter et Évaluer",14,2,2018-07-30 17:48:47.670729,2019-05-24 12:12:03.796915,0,2019-05-24 12:12:03.663522,f,f,,,0,0,1,,1,1,,"",,,12,,f,t,,,,,"{""maintain_branding_in_sub_account"":false}",
173,LDP 3.1 Overview,1,2,2018-05-11 20:52:35.315428,2019-05-06 14:21:01.867458,100,2018-05-07 20:03:33.705,t,f,,,0,0,31,,1,31,,,,,0,,f,f,,,,,{},
136,Stereotypes & Generalizations,10,2,2018-04-27 14:25:57.680588,2018-04-27 14:26:02.657265,0,2017-08-18 20:09:50.074,f,f,,,0,0,49,,0,49,,"",,,9,,f,t,,,,,,
184,2. Metaphors of Culture,18,2,2018-05-18 20:04:45.170074,2018-05-18 20:05:30.587376,0,2017-10-06 14:33:10.375648,f,f,,,0,0,65,,0,65,,,,,1,,t,t,,,,,{},
182,0. Welcome!,3,2,2018-05-18 20:02:41.628469,2018-05-23 16:44:56.849476,0,2018-05-23 16:44:56.715107,f,f,,,0,0,65,,2,65,,"",,,0,,f,t,,,,,{},
314,QT 4.4 - Review ,5,2,2018-10-04 11:08:09.489456,2018-10-22 10:20:28.575452,100,2018-10-22 10:20:21.983739,f,f,,,0,0,31,,1,31,,,,,0,,f,t,,,,,{},
40,6. Communication Styles,24,2,2017-10-26 14:59:13.341688,2018-06-15 20:55:22.735601,0,2018-06-15 20:55:22.651532,f,f,,,0,0,2,,0,2,,"",,,12,,t,t,,,,,{},
138,"Describe, Interpret, and Evaluate",14,2,2018-04-27 14:26:44.816611,2018-04-27 14:26:50.447691,0,2018-04-12 17:29:13.598651,f,f,,,0,0,49,,1,49,,,,,12,,f,t,,,,,,
395,TEST of Evidence in Comments ,8,4349,2019-07-19 16:23:00.404976,2019-11-04 01:03:45.976969,80,2019-10-16 17:37:12.809603,t,f,,,0,0,31,,1,31,,,,,0,,f,t,,,,,{},
140,Making Sense of the Experience,5,2,2018-04-27 14:30:02.500486,2018-04-27 14:30:06.976769,0,2017-08-21 18:48:21.567,f,f,,,0,0,49,,1,49,,,,,0,,f,t,,,,,,
186,4. Stereotypes & Generalizations,10,2,2018-05-18 20:06:47.560891,2018-05-18 20:07:33.604635,0,2017-08-18 20:09:50.074,f,f,,,0,0,65,,0,65,,"",,,9,,f,t,,,,,{},
178,LDP 4.1 Leadership Calls Logistics,100,2,2018-05-11 20:53:19.236123,2019-05-06 14:40:33.919381,100,2018-04-27 21:27:22.891,t,f,,,0,0,31,,1,31,,,,,1,,t,f,,,,,{},
385,LDP (esp) - Coffee Break,1,4349,2019-07-15 19:04:16.693562,2019-07-15 19:06:15.281418,100,2019-07-15 19:06:15.186222,f,f,,,0,0,31,,3,31,,,,,0,,f,f,,,,1110,{},
177,LDP 3.2 Visioning,2,2,2018-05-11 20:53:07.184789,2019-05-06 14:23:40.404858,100,2018-05-07 19:58:25.406,t,f,,,0,0,31,,1,31,,,,,0,,f,f,,,,,{},
218,"03. ""Me"" as a Cultural Being.",22,2,2018-06-01 19:11:08.557824,2018-12-20 20:11:29.809114,0,2018-12-20 20:11:29.753163,f,f,,,0,0,2,,0,2,,,,,16,,t,t,,,,,{},
390,LDP (esp) 2.4 Reflexión Personal,1,4349,2019-07-16 20:04:02.261154,2019-07-29 13:48:59.763414,100,2019-07-29 13:48:59.694979,f,f,,,0,0,31,,1,31,,,,,0,,f,f,,,,,{},
176,LDP 3.3 Inventing,1,2,2018-05-11 20:52:57.976863,2019-05-06 14:24:54.826824,100,2018-05-07 19:59:01.88,t,f,,,0,0,31,,1,31,,,,,0,,f,f,,,,,{},
175,LDP 3.4 Mentoring,2,2,2018-05-11 20:52:48.808999,2019-05-06 14:39:01.951348,100,2018-05-07 20:01:14.102,t,f,,,0,0,31,,1,31,,,,,0,,f,f,,,,,{},
174,LDP 3.5 Self-reflection,1,2,2018-05-11 20:52:41.9724,2019-05-06 14:39:46.722001,100,2018-05-07 20:01:52.178,f,f,,,0,0,31,,1,31,,,,,0,,f,f,,,,,{},
166,Getting to know each other,2,2,2018-05-11 20:51:26.082637,2018-05-11 20:51:30.711445,80,2018-05-07 19:31:51.374,f,f,,,0,0,31,,1,31,,,,,0,,f,f,,,,,{},
179,LDP 4.2 Leadership Call Recording,90,2,2018-05-11 20:53:25.633681,2019-05-06 14:44:16.262636,100,2018-04-27 21:24:32.099,f,f,,,0,0,31,,1,31,,,,,0,,t,f,,,,,{},
181,LDP 4.3 You as leaders then... and NOW,1,2,2018-05-11 20:53:44.643849,2019-05-06 14:46:42.368498,100,2018-05-07 19:55:36.64,t,f,,,0,0,31,,1,31,,,,,0,,f,f,,,,,{},
202,My Learning,4,2,2018-05-24 16:26:59.262025,2018-05-30 15:38:03.014562,0,2018-05-30 15:38:02.910323,f,f,,,0,0,49,,0,49,,,,,0,,f,t,,,,,{},
101,Welcome - Manual Training,2,2,2018-03-13 14:21:55.861695,2019-05-21 22:24:04.917026,0,2018-04-05 19:17:48.163981,f,f,,,0,0,1,,1,1,,,,,0,,f,t,,,,,,
168,LDP 2.3 Stakeholder analysis & Self-Reflection,1,2,2018-05-11 20:51:58.645082,2019-05-06 14:14:43.437342,80,2018-05-07 19:45:18.892,t,f,,,0,0,31,,1,31,,,,,0,,f,t,,,,,{},
169,LDP 2.2 The Incomplete Leader Model,2,2,2018-05-11 20:52:05.456884,2019-05-06 14:14:56.260203,80,2018-05-07 19:42:17.036,t,f,,,0,0,31,,1,31,,,,,0,,f,t,,,,,{},
143,4.5 Congratulations!,0,1,2018-05-09 21:36:58.304474,2018-05-09 21:50:57.420432,80,2018-04-27 21:30:13.276,f,f,,,0,0,1,2018-05-11 20:56:10.800231,0,1,,,,,0,,t,t,,,,,{},
163,LDP - 1.5 Coffee Break,1,2,2018-05-11 20:50:32.1252,2019-05-06 14:15:29.674306,100,2019-05-06 13:11:16.864244,f,f,,,0,0,31,,1,31,,,,,0,,f,f,,,,,{},
164,LDP 1.4 Course Guidelines,1,2,2018-05-11 20:50:41.472252,2019-05-06 14:17:53.43983,100,2019-05-06 13:09:56.582822,f,f,,,0,0,31,,1,31,,,,,0,,f,f,,,,,{},
165,LDP 1.3 Leaders in AFS,1,2,2018-05-11 20:51:12.328005,2019-05-06 14:17:58.183277,100,2018-05-07 19:33:24.488,f,f,,,0,0,31,,1,31,,,,,0,,f,f,,,,,{},
167,LDP 1.2 Getting to know each other,2,2,2018-05-11 20:51:47.579265,2019-05-06 14:18:13.579646,100,2018-05-07 19:31:51.374,f,f,,,0,0,31,,1,31,,"",,,0,,f,f,,,,,{},
142,4.3 You as leaders then... and NOW,1,1,2018-05-09 21:36:55.542609,2018-05-09 21:50:45.816452,80,2018-05-07 19:55:36.64,f,f,,,0,0,1,2018-05-11 20:56:45.843517,0,1,,,,,0,,f,t,,,,,{},
144,4.2 Leadership Call Recording,90,1,2018-05-09 21:37:01.389533,2018-05-09 21:51:06.472472,80,2018-04-27 21:24:32.099,f,f,,,0,0,1,2018-05-11 20:56:50.898925,0,1,,,,,0,,t,t,,,,,{},
149,3.5 Self-reflection,1,1,2018-05-09 21:37:16.753598,2018-05-09 21:51:55.223961,80,2018-05-07 20:01:52.178,f,f,,,0,0,1,2018-05-11 20:57:01.022093,0,1,,,,,0,,f,t,,,,,{},
150,3.1 Overview,1,1,2018-05-09 21:37:19.789591,2018-05-09 21:51:55.323563,80,2018-05-07 20:03:33.705,f,f,,,0,0,1,2018-05-11 20:57:39.246694,0,1,,,,,0,,f,t,,,,,{},
152,2.1 Overview,2,1,2018-05-09 21:37:29.322949,2018-05-09 21:51:56.072384,80,2018-05-07 19:48:22.973,f,f,,,0,0,1,2018-05-11 20:58:03.267744,0,1,,,,,0,,f,t,,,,,{},
155,2.3 Stakeholder analysis,1,1,2018-05-09 21:37:39.33412,2018-05-09 21:51:56.71477,80,2018-05-07 19:45:18.892,f,f,,,0,0,1,2018-05-11 20:58:12.988605,0,1,,,,,0,,f,t,,,,,{},
151,2.5 Leader Calls,1,1,2018-05-09 21:37:23.749613,2018-05-09 21:51:55.700007,80,2018-05-07 19:47:33.547,f,f,,,0,0,1,2018-05-11 20:58:21.287768,0,1,,,,,0,,f,t,,,,,{},
147,3.3 Inventing,1,1,2018-05-09 21:37:10.12841,2018-05-09 21:51:37.642459,80,2018-05-07 19:59:01.88,f,f,,,0,0,1,2018-05-11 20:57:48.513528,0,1,,,,,0,,f,t,,,,,{},
148,3.4 Mentoring,2,1,2018-05-09 21:37:13.824814,2018-05-09 21:51:50.387723,80,2018-05-07 20:01:14.102,f,f,,,0,0,1,2018-05-11 20:57:53.816037,0,1,,,,,0,,f,t,,,,,{},
157,1.3 Leaders in AFS,1,1,2018-05-09 21:37:48.31398,2018-05-09 21:51:57.016127,80,2018-05-07 19:33:24.488,f,f,,,0,0,1,2018-05-11 20:58:46.105758,0,1,,,,,0,,f,f,,,,,{},
154,2.2 The Incomplete Leader Model,2,1,2018-05-09 21:37:36.15908,2018-05-09 21:51:56.568058,80,2018-05-07 19:42:17.036,f,f,,,0,0,1,2018-05-11 20:58:07.844306,0,1,,,,,0,,f,t,,,,,{},
153,2.4 Self-reflection,1,1,2018-05-09 21:37:32.686468,2018-05-09 21:51:56.551232,80,2018-05-07 19:46:51.708,f,f,,,0,0,1,2018-05-11 20:58:16.934222,0,1,,,,,0,,f,t,,,,,{},
158,1.4 Course Guidelines,1,1,2018-05-09 21:37:52.004793,2018-05-09 21:51:57.019571,80,2018-05-07 19:35:03.122,f,f,,,0,0,1,2018-05-11 20:58:50.535259,0,1,,,,,0,,f,f,,,,,{},
159,1.5 Coffee Break,1,1,2018-05-09 21:37:54.980235,2018-05-09 21:51:57.422092,80,2018-05-07 19:36:18.53,f,f,,,0,0,1,2018-05-11 20:58:56.646752,0,1,,,,,0,,f,f,,,,,{},
214,19. Spinning Career Gold.,34,2,2018-06-01 19:00:06.792785,2018-08-14 13:42:04.200615,0,2018-08-14 13:42:04.092881,f,f,,,0,0,2,,2,2,,"",,,0,,t,t,,,,,{},
183,1. Roadmap,20,2,2018-05-18 20:03:48.620999,2018-05-18 20:03:52.891788,0,2018-04-12 17:16:46.851767,f,f,,,0,0,65,,0,65,,,,,0,,t,f,,,,,{},
145,4.1 Leadership Calls Logistics,100,1,2018-05-09 21:37:04.545454,2018-05-09 21:51:15.390037,80,2018-04-27 21:27:22.891,t,f,,,0,0,1,2018-05-11 20:56:57.003559,0,1,,,,,0,,t,t,,,,,{},
146,3.2 Visioning,2,1,2018-05-09 21:37:07.687984,2018-05-09 21:51:27.460538,80,2018-05-07 19:58:25.406,f,f,,,0,0,1,2018-05-11 20:57:43.693823,0,1,,,,,0,,f,t,,,,,{},
160,1.1 Welcome to the LDP online course!,4,1,2018-05-09 21:38:00.784038,2018-05-09 21:51:57.631853,80,2018-05-07 19:38:38.433,f,f,,,0,0,1,2018-05-11 20:58:28.329597,0,1,,,,,0,,f,f,,,,,{},
208,"13. Describe, Interpret, and Evaluate.",24,2,2018-06-01 18:40:58.393261,2018-07-13 18:02:10.782811,0,2018-07-13 18:02:10.666344,f,f,,,0,0,2,,1,2,,,,,16,,t,t,,,,,{},
156,1.2 Getting to know each other,2,1,2018-05-09 21:37:44.161914,2018-05-09 21:51:56.953213,80,2018-05-07 19:31:51.374,f,f,,,0,0,1,2018-05-11 20:58:41.191961,0,1,,,,,0,,f,f,,,,,{},
39,5. Cultural Values,26,2,2017-10-26 14:59:09.581801,2018-06-18 13:02:22.172642,0,2018-06-18 13:02:22.056021,f,f,,,0,0,2,,0,2,,,,,12,,t,t,,,,,{},
262,"10. « Eux », des êtres culturels",8,2,2018-07-30 17:34:54.502112,2018-07-30 17:38:36.629994,0,2018-07-30 17:31:08.655406,f,f,,,0,0,1,,0,1,,,,,0,,f,t,,,,,"{""maintain_branding_in_sub_account"":false}",
210,15. Dealing with Conflict.,26,2,2018-06-01 18:49:30.326028,2018-07-13 18:17:02.532177,0,2018-07-13 18:17:02.421075,f,f,,,0,0,2,,0,2,,,,,28,,t,t,,,,,{},
185,"3. ""Me"" as a Cultural Being",12,2,2018-05-18 20:05:43.653211,2018-05-18 20:05:49.421642,0,2017-08-18 19:58:10.546,f,f,,,0,0,65,,0,65,,,,,12,,f,t,,,,,{},
113,Suspending Judgement - DIE,14,2,2018-03-20 14:28:53.127873,2018-10-18 12:47:17.218413,0,2017-10-06 15:00:06.148441,f,f,,,0,0,31,,1,31,,,,,12,,f,t,,,,,{},
346,LIFT 4.6 Congratulations!,5,2432,2018-11-15 18:10:21.989346,2018-11-15 18:47:22.377279,0,2018-11-15 18:47:22.306496,f,f,,,0,0,113,,0,113,,,,,0,,t,f,,,,,{},
220,04. Stereotypes & Generalizations.,20,2,2018-06-01 19:12:47.20425,2019-09-10 14:52:25.063891,0,2019-09-10 14:52:24.982162,f,f,,,0,0,2,,2,2,,"",,,12,,t,t,,,,,{},
386,,,4349,2019-07-15 19:14:08.12746,2019-07-15 19:14:08.997405,80,,t,f,,,0,0,31,2019-07-15 19:30:18.891319,0,31,,,,,0,,f,t,,,,,{},
191,9. How to Cope with Challenge,7,2,2018-05-18 20:12:49.477635,2019-02-07 15:18:56.702675,0,2019-02-07 15:18:56.624113,f,f,,,0,0,65,,0,65,,,,,0,,f,t,,,,,{},
187,5. Cultural Values,16,2,2018-05-18 20:07:49.889936,2018-05-18 20:08:44.505661,0,2017-10-06 15:22:25.752959,f,f,,,0,0,65,,0,65,,,,,12,,f,t,,,,,{},
283,NQT 4.3 - DMIS,0,1,2018-09-28 22:05:34.989112,2018-09-28 22:05:35.596527,80,2018-09-28 19:34:00.964,f,f,,,0,0,1,2018-10-04 11:08:32.86018,0,1,,,,,0,,f,t,,,,,{},
493,Foundation 11 Group 2,,4349,2019-10-28 19:53:53.680044,2019-10-28 19:53:54.807445,80,,t,f,,,0,0,31,2019-10-28 20:24:11.313839,0,31,,,,,0,,f,t,,,,,{},
253,1. Parcours ,20,2,2018-07-30 15:26:11.575471,2018-08-01 14:48:37.251309,0,2018-08-01 14:48:37.194816,f,f,,,0,0,1,,0,1,,,,,0,,t,f,,,,,"{""maintain_branding_in_sub_account"":false}",
333,LIFT 3.1 Overview,1,2432,2018-10-29 21:59:08.665705,2018-11-01 18:24:19.477127,0,2018-11-01 18:24:19.372038,f,f,,,0,0,113,,0,113,,,,,0,,f,f,,,,,{},
188,6. Communication Styles,14,2,2018-05-18 20:08:57.763871,2018-05-18 20:10:06.122632,0,2017-10-06 15:22:58.081362,f,f,,,0,0,65,,0,65,,,,,12,,f,t,,,,,{},
303,QT 2.1 - Welcome to week 2,1,2,2018-10-01 20:43:55.157265,2018-10-08 16:25:13.372431,100,2018-10-08 16:23:43.192438,f,f,,,0,0,31,,0,31,,,,,0,,f,t,,,,,{},
227,My Learning,4,2,2018-06-27 21:56:09.734518,2018-10-26 12:51:04.40861,0,2018-10-26 12:51:04.334985,f,f,,,0,0,31,,0,31,,"",,,0,,f,t,,,,,{},
347,,,2,2018-12-11 21:29:07.70532,2018-12-11 21:29:08.421072,80,,t,f,,,0,0,2,2018-12-11 21:29:16.635824,0,2,,,,,0,,f,t,,,,,{},
277,,,1,2018-09-28 21:59:05.526564,2018-09-28 21:59:06.084315,80,,f,f,,,1,0,1,2018-09-28 22:03:48.967082,0,1,,,,,0,,f,t,,,,,{},
189,7. When Cultures Collide,14,2,2018-05-18 20:10:28.966555,2018-05-18 20:11:28.634287,0,2017-08-18 20:36:50.241,f,f,,,0,0,65,,0,65,,"",,,15,,f,t,,,,,{},
32,18. Making Sense of the Experience,15,2,2017-10-26 14:58:48.642172,2018-06-25 20:38:19.727429,0,2018-06-25 20:38:19.680628,f,f,,,0,0,2,,1,2,,,,,0,,t,t,,,,,{},
236,9. Building a Culture of Philanthropy,7,1,2018-07-11 16:31:35.140818,2018-07-11 16:31:35.729636,80,2018-06-25 17:25:50.629,f,f,,,0,0,1,2018-07-12 16:24:01.168951,0,1,,,,,0,,f,t,,,,,{},
255,"3. Moi, un être culturel",12,2,2018-07-30 15:46:53.406581,2018-08-01 14:50:58.556565,0,2018-08-01 14:50:58.439713,f,f,,,0,0,1,,0,1,,,,,12,,f,t,,,,,"{""maintain_branding_in_sub_account"":false}",
190,8. Balancing Challenge and Support,11,2,2018-05-18 20:11:40.776275,2018-05-18 20:11:57.155276,0,2018-04-12 17:23:19.970419,f,f,,,0,0,65,,0,65,,,,,16,,f,t,,,,,{},
405,LDP (esp) 4.1 Llamado sobre Liderazgo : Preguntas ,90,4349,2019-08-14 14:05:30.900696,2019-08-14 14:07:30.439757,100,2019-08-14 14:07:30.387924,f,f,,,0,0,31,,1,31,,,,,0,,t,f,,,,,{},
192,"10. ""Them"" as Cultural Beings",8,2,2018-05-18 20:13:51.197838,2018-05-18 20:17:43.643144,0,2017-08-18 20:46:32.21,f,f,,,0,0,65,,0,65,,,,,0,,f,t,,,,,{},
206,11. Cultural Surprises and Irritations.,22,2,2018-06-01 18:37:54.334766,2018-07-03 20:13:55.069292,0,2018-06-20 19:11:18.924415,f,f,,,0,0,2,,0,2,f,,,,16,,t,t,,,,,{},
215,01. Roadmap.,30,2,2018-06-01 19:00:25.158802,2018-12-20 20:08:47.187851,0,2018-12-20 20:07:54.256024,f,f,,,0,0,2,,0,2,,,,,0,,t,f,,,,,{},
242,Governance - 3. Introduction to Governance,28,2,2018-07-12 15:58:06.581909,2019-02-11 19:44:38.11025,0,2019-02-11 19:11:57.483022,f,f,,,0,0,31,,3,31,,"",,,15,,f,t,,,,,{},
222,06. Communication Styles.,24,2,2018-06-01 19:20:25.115706,2018-12-20 20:16:12.548363,0,2018-12-20 20:16:12.442996,f,f,,,0,0,2,,0,2,,"",,,16,,t,t,,,,,{},
240,Governance - 13. Conclusion,1,2,2018-07-12 15:57:41.147067,2019-02-11 20:03:59.472739,0,2018-05-10 19:27:56.81,f,f,,,0,0,31,,1,31,,,,,0,,f,t,,,,,{},
244,Governance - 5. Governance Modes,9,2,2018-07-12 15:58:21.647368,2019-02-11 21:26:07.037317,0,2019-02-11 21:26:06.847763,f,f,,,0,0,31,,1,31,,,,,0,,f,t,,,,,{},
224,08. Balancing Challenge and Support.,21,2,2018-06-01 19:27:17.026858,2018-12-20 20:17:59.33681,0,2018-12-20 20:17:59.255364,f,f,,,0,0,2,,0,2,,,,,19,,t,t,,,,,{},
235,8. Advocacy,15,1,2018-07-11 16:31:30.153349,2018-07-11 16:31:31.493783,80,2018-06-29 12:03:05.556,f,f,,,0,0,1,2018-07-12 16:24:03.862202,0,1,,,,,0,,f,t,,,,,{},
249,Governance - 10. Building a Culture of Philanthropy,7,2,2018-07-12 15:58:54.091795,2019-02-11 21:44:42.273064,0,2019-02-11 21:44:42.163898,f,f,,,0,0,31,,1,31,,,,,0,,f,t,,,,,{},
232,5. Board Work Plan & Agenda,8,1,2018-07-11 16:31:15.688716,2018-07-11 16:31:16.181412,80,2018-07-04 19:55:22.827,f,f,,,0,0,1,2018-07-12 16:24:13.48119,0,1,,,,,0,,f,t,,,,,{},
212,17. Professions in the Public Eye.,33,2,2018-06-01 18:57:33.106417,2018-07-13 19:42:11.81232,0,2018-07-13 19:42:11.721684,f,f,,,0,0,2,,0,2,,,,,0,,t,t,,,,,{},
216,20. Taking Action.,19,2,2018-06-01 19:04:09.154145,2018-07-13 20:20:59.098948,0,2018-07-13 20:20:59.011662,f,f,,,0,0,2,,1,2,,,,,11,,t,t,,,,,{},
193,11. Cultural Surprises and Irritations,12,2,2018-05-18 20:17:54.905383,2018-05-18 20:18:31.681935,0,2017-10-06 14:49:43.645257,f,f,,,0,0,65,,0,65,,,,,12,,t,t,,,,,{},
369,Copy of 1.1 Welcome to the LDP online course!,4,2281,2019-03-13 19:08:59.525035,2019-03-13 19:08:59.525035,80,2018-05-07 19:38:38.433,t,f,,,0,0,110,2019-03-13 19:10:22.101536,0,31,,,,,0,,f,f,,,,,{},
194,12. Navigating Culture,10,2,2018-05-18 20:18:42.000193,2018-05-18 20:19:27.276522,0,2017-10-26 14:53:22.156983,f,f,,,0,0,65,,0,65,,,,,0,,f,t,,,,,{},
26,11. Cultural Surprises and Irritations,22,2,2017-10-26 14:58:32.211199,2018-07-02 18:53:37.274397,0,2018-07-02 18:53:37.20796,f,f,,,0,0,2,,0,2,f,,,,12,,t,t,,,,,{},
449,,,400,2019-09-12 15:10:51.753523,2019-09-12 15:10:52.416064,80,,t,f,,,0,0,1,2019-09-12 15:11:03.067798,0,1,,,,,0,,f,t,,,,,{},
226,My Expectations,4,2,2018-06-27 21:55:01.005185,2018-10-26 12:53:59.700335,0,2018-10-26 12:53:59.615618,f,f,,,0,0,31,,0,31,,,,,0,,f,t,,,,,{},
320,LIFT 1.1 Welcome to the LIFT online course!,2,2,2018-10-17 16:13:24.524901,2018-10-18 18:27:50.151952,0,2018-10-18 18:27:50.026877,f,f,,,0,0,113,,0,113,,,,,0,,f,f,,,,,{},
241,Governance - 1. Welcome ,8,2,2018-07-12 15:57:58.132506,2019-02-11 19:42:06.056123,0,2019-02-11 19:05:23.495132,f,f,,,0,0,31,,1,31,,,,,0,,f,t,,,,,{},
263,11. Surprises et irritations culturelles,12,2,2018-07-30 17:39:37.06907,2019-05-24 12:11:06.999786,0,2019-05-24 12:11:06.948838,f,f,,,0,0,1,,0,1,,,,,12,,t,t,,,,,"{""maintain_branding_in_sub_account"":false}",
195,"13. Describe, Interpret, and Evaluate",14,2,2018-05-18 20:19:38.480325,2018-05-18 20:20:30.733939,0,2018-04-12 17:29:13.598651,f,f,,,0,0,65,,1,65,,,,,12,,f,t,,,,,{},
238,11. Conclusion,1,1,2018-07-11 16:31:44.742183,2018-07-11 16:31:45.373013,80,2018-05-10 19:27:56.81,f,f,,,0,0,1,2018-07-12 16:23:54.896985,0,1,,,,,0,,f,t,,,,,{},
209,14. More Cultural Values.,23,2,2018-06-01 18:45:00.870327,2018-07-13 18:15:29.723701,0,2018-07-13 18:15:29.531257,f,f,,,0,0,2,,0,2,,"",,,24,,t,t,,,,,{},
221,05. Cultural Values.,26,2,2018-06-01 19:15:08.21104,2018-12-20 20:13:41.193815,0,2018-12-20 20:13:41.060124,f,f,,,0,0,2,,0,2,,"",,,16,,t,t,,,,,{},
205,"10. ""Them"" as Cultural Beings.",18,2,2018-06-01 18:31:39.937665,2018-10-30 15:05:24.832755,0,2018-10-30 15:05:24.726648,f,f,,,0,0,2,,1,2,,"",,,0,,t,t,,,,,{},
196,14. More Cultural Values,13,2,2018-05-18 20:20:54.948622,2018-05-18 20:22:57.883963,0,2018-05-18 20:22:57.761669,f,f,,,0,0,65,,0,65,,,,,18,,f,t,,,,,{},
213,18. Making Sense of the Experience.,15,2,2018-06-01 18:57:50.604464,2018-07-13 19:39:39.322048,0,2018-07-13 19:39:39.256149,f,f,,,0,0,2,,1,2,,,,,0,,t,t,,,,,{},
250,Careers in STEM,14,2,2018-07-13 17:04:33.93743,2018-07-16 15:08:38.094826,0,2018-07-16 15:08:37.925381,f,f,,,0,0,49,,0,49,,,,,1,,f,f,,,,,{},
308,QT 3.2 - Stereotypes and Generalizations,25,2,2018-10-04 11:05:59.272985,2018-10-15 15:34:40.133219,80,2018-10-15 15:34:03.170204,f,f,,,0,0,31,,1,31,,,,,2,,t,t,,,,,{},
254,2. Métaphores culturelles,18,2,2018-07-30 15:43:29.433943,2018-07-30 15:46:45.807402,0,2018-07-30 15:46:32.182739,f,f,,,0,0,1,,0,1,,,,,1,,t,t,,,,,"{""maintain_branding_in_sub_account"":false}",
394,LDP (esp) 3.3 Innovación,5,4349,2019-07-18 20:05:20.119219,2019-07-18 20:32:02.469625,100,2019-07-18 20:32:02.389859,f,f,,,0,0,31,,1,31,,,,,0,,f,f,,,,,{},
197,15. Dealing with Conflict,16,2,2018-05-18 20:23:11.364777,2018-05-18 20:24:01.207467,0,2018-05-18 20:24:01.081892,f,f,,,0,0,65,,0,65,,,,,21,,f,t,,,,,{},
223,07. When Cultures Collide.,24,2,2018-06-01 19:25:02.374601,2018-12-20 20:16:58.392794,0,2018-12-20 20:16:58.31997,f,f,,,0,0,2,,0,2,,,,,20,,t,t,,,,,{},
334,LIFT 3.2 Visioning & Inventing,3,2432,2018-10-30 14:24:06.067875,2018-11-01 18:24:32.051198,0,2018-11-01 18:24:31.950263,f,f,,,0,0,113,,0,113,,,,,0,,f,f,,,,,{},
229,2. Introduction to Governance,28,1,2018-07-11 16:31:03.616886,2018-07-12 15:55:35.231527,80,2018-07-12 15:55:34.999043,f,f,,,0,0,1,2018-07-12 16:23:47.529828,0,1,,"",,,5,,f,t,,,,,{},
198,16. Power and Privilege,11,2,2018-05-18 20:24:11.019904,2018-05-18 20:24:55.957237,0,2018-05-18 20:24:55.871913,f,f,,,0,0,65,,0,65,,,,,0,,f,t,,,,,{},
219,"Copy of Copy of 3. ""Me"" as a Cultural Being",22,2,2018-06-01 19:11:14.127913,2018-06-01 19:11:14.127913,0,2018-05-17 15:53:41.34786,f,f,,,0,0,2,2018-06-01 19:11:49.275997,0,2,,,,,16,,t,t,,,,,{},
199,17. Making Sense of the Experience,5,2,2018-05-18 20:25:32.494352,2018-05-18 20:27:25.451775,0,2017-08-21 18:48:21.567,f,f,,,0,0,65,,1,65,,,,,0,,f,t,,,,,{},
243,"Governance - 4. Roles, Responsibilities & Competencies of the Board",9,2,2018-07-12 15:58:14.440373,2019-02-11 21:19:55.126792,0,2019-02-11 21:19:54.990807,f,f,,,0,0,31,,3,31,,,,,0,,f,t,,,,,{},
200,18. Taking Action,9,2,2018-05-18 20:27:52.88444,2018-05-18 20:27:58.373297,0,2018-04-12 17:32:01.107817,f,f,,,0,0,65,,0,65,,,,,11,,f,t,,,,,{},
231,4. Governance Modes,9,1,2018-07-11 16:31:11.896255,2018-07-12 15:26:21.662875,80,2018-07-12 15:26:21.319421,f,f,,,0,0,1,2018-07-12 16:23:51.232942,0,1,,,,,0,,f,t,,,,,{},
332,LIFT 2.6 Coffee Break,1,2432,2018-10-25 15:39:44.658014,2018-11-02 13:25:59.376492,0,2018-11-02 13:25:59.289887,f,f,,,0,0,117,,0,113,,,,,0,,f,f,,,,,{},
230,"3. Roles, Responsibilities & Competencies of the Board",9,1,2018-07-11 16:31:07.615111,2018-07-11 16:31:08.111761,80,2018-07-04 19:59:43.719,f,f,,,0,0,1,2018-07-12 16:24:24.740641,0,1,,,,,0,,f,t,,,,,{},
228,1. Welcome ,8,1,2018-07-11 16:30:58.850808,2018-07-11 16:30:59.461329,80,2018-07-05 19:20:44.375,f,f,,,0,0,1,2018-07-12 16:24:28.01757,0,1,,,,,0,,f,t,,,,,{},
237,10. Board Evaluation,13,1,2018-07-11 16:31:39.886589,2018-07-11 16:31:40.446643,80,2018-06-26 21:31:34.474,f,f,,,0,0,1,2018-07-12 16:23:57.92624,0,1,,,,,0,,f,t,,,,,{},
234,7. Board Accountability,5,1,2018-07-11 16:31:25.219113,2018-07-11 16:31:25.866355,80,2018-06-25 15:38:04.738,f,f,,,0,0,1,2018-07-12 16:24:06.801684,0,1,,,,,0,,f,t,,,,,{},
245,Governance - 6. Board Work Plan & Agenda,8,2,2018-07-12 15:58:30.538183,2019-02-11 21:29:34.55233,0,2019-02-11 21:29:34.421617,f,f,,,0,0,31,,2,31,,,,,0,,f,t,,,,,{},
233,6. Hiring & Evaluating the Partner Director,6,1,2018-07-11 16:31:19.879041,2018-07-11 16:31:20.431175,80,2018-06-25 15:37:33.838,f,f,,,0,0,1,2018-07-12 16:24:09.759253,0,1,,,,,0,,f,t,,,,,{},
273,17. Professions in the Public Eye. - AUG,33,2,2018-09-11 20:19:15.558072,2018-09-11 20:19:30.961507,0,2018-07-13 19:42:11.721684,f,f,,,0,0,1,2018-09-11 20:20:25.165478,0,1,,,,,0,,t,t,,,,,"{""maintain_branding_in_sub_account"":false}",
272,19. Spinning Career Gold. - AUG,34,2,2018-09-11 20:18:22.148003,2018-09-11 20:18:43.754641,0,2018-08-14 13:42:04.092881,f,f,,,0,0,1,2018-09-11 20:20:51.664938,0,1,,"",,,0,,t,t,,,,,"{""maintain_branding_in_sub_account"":false}",
247,Governance - 8. Board Accountability,5,2,2018-07-12 15:58:42.294542,2019-02-11 21:36:46.790841,0,2019-02-11 21:36:46.699211,f,f,,,0,0,31,,1,31,,,,,0,,f,t,,,,,{},
211,16. Power and Privilege.,21,2,2018-06-01 18:55:50.851406,2018-07-03 20:14:22.805642,0,2018-07-03 15:29:41.620303,f,f,,,0,0,2,,0,2,,"",,,0,,t,t,,,,,{},
43,9. How to Cope with Challenge,17,2,2017-10-26 14:59:23.223069,2019-02-12 13:40:31.19136,0,2019-02-12 13:40:31.148884,f,f,,,0,0,2,,0,2,,,,,0,,t,t,,,,,{},
280,NQT 1.3 - Intro to the Learning Program and Intercultural Competence,12,1,2018-09-28 22:05:03.043289,2018-09-28 22:05:03.664694,80,2018-09-28 19:07:22.483,f,f,,,0,0,1,2018-10-01 15:26:19.975129,0,1,,,,,0,,f,t,,,,,{},
398,LDP (esp) 3.5 Auto-Reflexión,1,4349,2019-07-22 15:27:06.680235,2019-07-22 15:32:50.190631,100,2019-07-22 15:32:50.108659,f,f,,,0,0,31,,1,31,,,,,0,,f,f,,,,,{},
282,NQT 4.4 - See you soon,0,1,2018-09-28 22:05:22.029198,2018-09-28 22:05:23.319666,80,2018-09-21 12:10:13.334,f,f,,,0,0,1,2018-10-04 11:08:37.874868,0,1,,,,,0,,f,t,,,,,{},
256,4. Stéréotypes et Généralisations,10,2,2018-07-30 15:50:09.140695,2018-07-30 16:02:32.150262,0,2018-07-30 16:02:25.952754,f,f,,,0,0,1,,0,1,,"",,,9,,f,t,,,,,"{""maintain_branding_in_sub_account"":false}",
259,7. Quand les cultures se heurtent,14,2,2018-07-30 17:11:25.421535,2018-08-01 14:53:03.757863,0,2018-08-01 14:53:03.611946,f,f,,,0,0,1,,0,1,,"",,,15,,f,t,,,,,"{""maintain_branding_in_sub_account"":false}",
286,NQT 3.4 - Cultural Dimensions,20,1,2018-09-28 22:06:15.717433,2018-09-28 22:06:16.260571,80,2018-09-19 22:12:01.066,f,f,,,0,0,1,2018-10-04 11:07:07.51607,0,1,,,,,0,,f,t,,,,,{},
315,LIFT 1.5 Coffee Break,1,1,2018-10-17 14:06:07.984263,2018-10-17 14:06:08.528871,0,2018-10-15 21:11:33.496,f,f,,,0,0,1,2018-10-17 16:16:19.737872,0,1,,,,,0,,f,f,,,,,{},
279,NQT 1.2 - Who are we? - Getting to know each other,3,1,2018-09-28 22:04:35.14487,2018-09-28 22:04:35.70383,80,2018-09-28 18:57:28.445,f,f,,,0,0,1,2018-10-01 15:27:17.591779,0,1,,,,,0,,f,t,,,,,{},
264,12. S’adapter à la nouvelle culture,9,2,2018-07-30 17:44:02.536738,2018-07-30 17:47:32.167483,0,2018-07-30 17:47:24.814626,f,f,,,0,0,1,,0,1,,,,,0,,f,t,,,,,"{""maintain_branding_in_sub_account"":false}",
274,Professions in the Public Eye. - AUG,33,2,2018-09-11 20:19:54.915002,2018-12-11 21:36:07.942004,0,2018-12-11 21:36:07.842817,f,f,,,0,0,102,,0,102,,,,,0,,t,t,,,,,"{""maintain_branding_in_sub_account"":false}",
260,8. L’équilibre entre les défis et le soutien,11,2,2018-07-30 17:19:03.193367,2018-08-01 14:57:26.425713,0,2018-08-01 14:57:26.30714,f,f,,,0,0,1,,0,1,,,,,16,,f,t,,,,,"{""maintain_branding_in_sub_account"":false}",
318,LIFT 1.2 Getting to Know Each Other,3,1,2018-10-17 14:06:16.846137,2018-10-17 14:06:17.740989,0,2018-10-17 13:59:06.578,f,f,,,0,0,1,2018-10-17 16:16:05.586881,0,1,,,,,0,,f,f,,,,,{},
498,,,400,2019-10-30 21:10:45.939355,2019-10-30 21:10:46.711394,80,,t,f,,,0,0,233,2019-10-30 21:13:08.263185,0,233,,,,,0,,f,t,,,,,{},
275,Spinning Career Gold. - AUG,34,2,2018-09-11 20:20:31.300369,2018-12-11 21:37:08.657387,0,2018-12-11 21:37:08.540415,f,f,,,0,0,102,,2,102,,"",,,0,,t,t,,,,,"{""maintain_branding_in_sub_account"":false}",
321,LIFT 1.2 Getting to Know Each Other,3,2,2018-10-17 16:14:08.788016,2018-10-18 18:31:16.020622,0,2018-10-18 18:31:15.920229,f,f,,,0,0,113,,0,113,,,,,0,,f,f,,,,,{},
268,16. Pouvoir et privilège,11,2,2018-07-30 18:12:13.324235,2018-08-01 15:06:11.444007,0,2018-08-01 15:06:11.287284,f,f,,,0,0,1,,0,1,,,,,0,,f,t,,,,,"{""maintain_branding_in_sub_account"":false}",
312,QT 4.2 - Communication Styles,23,2,2018-10-04 11:07:48.402057,2018-10-22 10:18:09.568042,80,2018-10-22 10:18:01.719786,f,f,,,0,0,31,,1,31,,,,,12,,f,t,,,,,{},
302,QT 1.1 - Welcome to the Qualified Trainer Certification Program,4,2,2018-10-01 15:27:20.52565,2018-10-01 19:51:04.952877,100,2018-09-28 17:25:27.444,f,f,,,0,0,31,,0,31,,,,,0,,f,t,,,,,{},
284,NQT 4.2 - Communication Styles,13,1,2018-09-28 22:05:50.756628,2018-09-28 22:05:51.376205,100,2018-09-26 18:45:05.872,f,f,,,0,0,1,2018-10-04 11:08:27.863949,0,1,,,,,4,,f,t,,,,,{},
506,GCC DP | DIVE,,2,2019-11-06 21:56:54.581881,2019-11-06 21:56:55.529789,80,,t,f,,,0,0,1,,0,1,,,,,0,,f,t,,,,,{},
269,17. Donner un sens à votre expérience,5,2,2018-07-30 18:36:33.495648,2018-07-30 18:37:45.969875,0,2018-07-30 18:37:45.862159,f,f,,,0,0,1,,1,1,,,,,0,,f,t,,,,,"{""maintain_branding_in_sub_account"":false}",
304,QT 2.2 - AFS Educational Approach,30,2,2018-10-01 20:44:28.983046,2018-10-08 16:24:47.317994,40,2018-10-08 16:24:47.113348,f,f,,,0,0,31,,0,31,,,,,9,,t,t,,,,,{},
325,Roadmap to your Learning Journey,8,441,2018-10-18 12:42:44.065483,2018-10-26 13:00:57.784351,80,2018-10-26 13:00:57.655098,f,f,,,0,0,31,,0,31,,,,,0,,f,t,,,,,{},
305,QT 2.3 - Definitions and Concepts of Culture,21,2,2018-10-01 20:44:47.361167,2018-10-26 16:44:39.747305,100,2018-10-08 16:33:12.712021,t,f,,,0,0,31,,0,31,,,,,6,,f,t,,,,,{},
246,Governance - 7. Hiring & Evaluating the Partner Director,6,2,2018-07-12 15:58:36.766411,2019-04-08 19:46:38.296808,0,2019-04-08 19:46:38.162274,f,f,,,0,0,31,,5,31,,,,,0,,f,t,,,,,{},
267,15. La gestion du conflit,16,2,2018-07-30 18:02:47.142135,2018-07-30 18:12:07.032897,0,2018-07-30 18:12:01.96956,f,f,,,0,0,1,,0,1,,,,,21,,f,t,,,,,"{""maintain_branding_in_sub_account"":false}",
509,GCC DP | Manejo del conflicto,,2,2019-11-06 21:58:49.110545,2019-11-06 21:58:50.086295,80,,t,f,,,0,0,1,,0,1,,,,,0,,f,t,,,,,{},
287,NQT 3.3 - The D.I.V.E Model,0,1,2018-09-28 22:06:26.750442,2018-09-28 22:06:27.330558,80,2018-09-28 19:36:05.529,f,f,,,0,0,1,2018-10-04 11:07:03.389529,0,1,,,,,0,,f,t,,,,,{},
266,14. D’autres valeurs culturelles,13,2,2018-07-30 17:55:24.322327,2019-05-24 12:13:36.301518,0,2019-05-24 12:13:36.182363,f,f,,,0,0,1,,0,1,,,,,18,,f,t,,,,,"{""maintain_branding_in_sub_account"":false}",
310,QT 3.4 - Cultural Dimensions,20,2,2018-10-04 11:06:23.585842,2018-10-15 15:36:03.510205,100,2018-10-15 15:35:58.238731,f,f,,,0,0,31,,1,31,,,,,0,,t,t,,,,,{},
289,NQT 3.1 - Welcome to week 3,0,1,2018-09-28 22:06:51.211654,2018-09-28 22:06:51.737052,80,2018-09-21 12:10:20.194,f,f,,,0,0,1,2018-10-04 11:06:55.301618,0,1,,,,,0,,f,t,,,,,{},
270,18. Passer à l’action,10,2,2018-07-30 18:38:40.34171,2019-05-24 12:15:14.321335,0,2019-05-24 12:15:14.194525,f,f,,,0,0,1,,0,1,,,,,11,,f,t,,,,,"{""maintain_branding_in_sub_account"":false}",
338,LIFT 3.6 Self-Reflection,,2432,2018-10-30 16:27:48.183646,2018-10-30 16:31:08.845773,80,,t,f,,,0,0,113,2018-11-01 16:14:18.769676,0,113,,,,,0,,f,t,,,,,{},
328,,,2432,2018-10-25 14:53:24.934143,2018-10-25 14:53:25.415273,80,,t,f,,,0,0,113,2018-10-25 14:57:22.78185,0,113,,,,,0,,f,t,,,,,{},
288,NQT 3.2 - Stereotypes and Generalizations,7,1,2018-09-28 22:06:38.640966,2018-09-28 22:06:39.191088,80,2018-09-19 09:20:01.228,f,f,,,0,0,1,2018-10-04 11:06:59.425275,0,1,,,,,0,,f,t,,,,,{},
285,NQT 4.1 - Welcome to week 4,0,1,2018-09-28 22:06:04.186572,2018-09-28 22:06:04.784401,80,2018-09-21 12:10:29.257,f,f,,,0,0,1,2018-10-04 11:07:39.119155,0,1,,,,,0,,f,t,,,,,{},
323,LIFT 1.4 Course Guidelines,1,2,2018-10-17 16:15:14.134628,2018-10-17 16:15:23.054077,0,2018-10-15 21:10:26.683,f,f,,,0,0,113,,0,113,,"",,,0,,f,f,,,,,{},
327,LIFT 2.2 The Incomplete Leader Model,2,2432,2018-10-25 14:21:28.751984,2018-10-25 17:29:06.419856,0,2018-10-25 17:29:06.312018,f,f,,,0,0,113,,0,113,,,,,0,,f,f,,,,,{},
329,LIFT 2.3 Stakeholder Analysis,2,2432,2018-10-25 15:25:12.597593,2018-10-25 17:30:05.360344,0,2018-10-25 17:30:05.23737,f,f,,,0,0,113,,0,113,,,,,0,,f,f,,,,,{},
331,LIFT 2.5 Leader Calls,1,2432,2018-10-25 15:37:04.987434,2018-10-25 17:32:28.910599,0,2018-10-25 17:32:28.827755,f,f,,,0,0,113,,0,113,,,,,0,,f,f,,,,,{},
326,LIFT 2.1 Overview,7,2432,2018-10-24 18:45:58.46701,2018-10-25 17:36:13.143282,0,2018-10-25 17:27:59.662025,t,f,,,0,0,113,,0,113,,,,,0,,f,f,,,,,{},
324,LIFT 1.5 Coffee Break,1,2,2018-10-17 16:15:43.641716,2018-10-17 16:15:48.000953,0,2018-10-15 21:11:33.496,f,f,,,0,0,113,,0,113,,,,,0,,f,f,,,,,{},
341,LIFT 4.1 Overview,2,2432,2018-11-14 20:53:05.767408,2018-11-15 18:29:12.340375,80,2018-11-15 18:29:12.28405,f,f,,,0,0,113,,0,113,,,,,0,,t,f,,,,,{},
342,LIFT 4.2 Fundamentals,7,2432,2018-11-14 20:55:56.75022,2018-11-15 18:34:05.847464,80,2018-11-15 18:34:05.783319,f,f,,,0,0,113,,0,113,,,,,0,,t,f,,,,,{},
296,NQT Content Questionnaire,6,1,2018-09-28 22:13:58.537681,2018-09-28 22:13:59.083769,0,2017-09-29 15:52:11.403,t,f,,,0,0,1,,1,1,,,,,2,,f,f,100,,,745,{},
343,LIFT 4.3 Sample Project,25,2432,2018-11-14 21:06:58.926666,2018-11-15 18:34:48.1225,0,2018-11-15 18:34:48.0727,f,f,,,0,0,113,,0,113,,,,,0,,t,f,,,,,{},
344,LIFT 4.4 Leadership Assessment,45,2432,2018-11-14 22:05:05.677917,2018-11-15 18:35:25.86637,0,2018-11-15 18:35:25.812007,f,f,,,0,0,113,,0,113,,,,,0,,t,f,,,,,{},
316,LIFT 1.4 Course Guidelines,1,1,2018-10-17 14:06:09.308506,2018-10-17 14:06:09.77048,0,2018-10-15 21:10:26.683,f,f,,,0,0,1,2018-10-17 16:16:15.757161,0,1,,,,,0,,f,f,,,,,{},
345,LIFT 4.5 Mentoring,20,2432,2018-11-15 16:57:40.836795,2018-11-15 18:46:23.358929,0,2018-11-15 18:46:23.274967,f,f,,,0,0,113,,0,113,,,,,0,,t,f,,,,,{},
297,QT 1.5 - Coffee Break,1,2,2018-10-01 15:05:43.995,2018-10-01 19:50:43.201136,100,2018-10-01 19:45:40.172463,f,f,,,0,0,31,,0,31,,,,,0,,f,t,,,,,{},
378,LDP (esp) - Coffee Break,1,2,2019-07-12 20:00:27.498936,2019-07-12 20:00:28.452401,100,2019-07-12 18:49:24.516,f,f,,,0,0,1,2019-07-12 20:02:19.080437,0,1,,,,,0,,f,f,,,,,{},
276,NQT 1.1 - Welcome to the Qualified Trainer Certification Program,4,1,2018-09-28 21:53:28.209401,2018-09-28 21:53:28.817126,80,2018-09-28 17:25:27.444,f,f,,,0,0,1,2018-10-01 15:27:52.635071,0,1,,,,,0,,f,t,,,,,{},
450,Debriefing Experiential Learning ,1,400,2019-09-12 15:13:00.895197,2019-09-12 15:17:40.789229,80,2019-09-12 15:17:40.678704,f,f,,,0,0,1,,0,1,,,,,0,,f,t,,,,,{},
370,,,3,2019-03-18 14:55:57.806233,2019-03-18 14:55:58.301221,80,,t,f,,,0,0,1,2019-09-04 15:55:47.056443,0,1,,,,,0,,f,t,,,,,{},
301,QT 1.2 - Who are we? - Getting to know each other,15,2,2018-10-01 15:26:24.798257,2018-10-01 19:50:49.800189,100,2018-10-01 18:13:32.713944,f,f,,,0,0,31,,0,31,,,,,0,,t,t,,,,,{},
337,LIFT 4.2 Mentoring,,2432,2018-10-30 14:50:49.914915,2018-11-01 17:32:27.624403,80,,t,f,,,0,0,113,,0,113,,,,,0,,f,t,,,,,{},
309,QT 3.3 - The D.I.V.E. Model,25,2,2018-10-04 11:06:18.455937,2018-10-15 15:32:50.261876,100,2018-10-15 15:32:49.942022,f,f,,,0,0,31,,1,31,,,,,0,,t,t,,,,,{},
217,02. Metaphors of Culture.,28,2,2018-06-01 19:08:06.67515,2018-12-20 20:10:49.890803,0,2018-12-20 20:10:49.821469,f,f,,,0,0,2,,0,2,,,,,1,,t,t,,,,,{},
307,QT 3.1 - Welcome to module 3,1,2,2018-10-04 11:05:47.598418,2018-10-15 15:33:30.05938,100,2018-10-15 15:33:22.171845,f,f,,,0,0,31,,1,31,,,,,0,,t,t,,,,,{},
335,LIFT 3.3 AFS Network Strategy,1,2432,2018-10-30 14:46:27.170956,2018-11-01 18:24:45.194437,0,2018-11-01 18:24:45.103421,f,f,,,0,0,113,,0,113,,,,,0,,f,f,,,,,{},
348,Governance - 12. Ten Things Every AFS Board Needs to Know,24,1852,2018-12-19 19:51:01.975897,2019-02-11 21:46:01.476947,0,2019-02-11 20:06:06.048564,f,f,,,0,0,31,,0,31,,,,,10,,f,t,,,,,{},
313,QT 4.3 - DMIS,28,2,2018-10-04 11:07:58.570737,2018-10-22 10:19:30.124124,100,2018-10-22 10:19:21.948286,f,f,,,0,0,31,,1,31,,,,,0,,f,t,,,,,{},
336,LIFT 3.4 Growth Plan,1,2432,2018-10-30 14:47:55.201412,2018-11-01 18:25:22.45455,0,2018-11-01 18:25:22.314894,f,f,,,0,0,113,,0,113,,,,,0,,f,f,,,,,{},
311,QT 4.1 - Welcome to module 4,1,2,2018-10-04 11:07:17.535611,2018-10-22 10:22:24.729726,100,2018-10-22 10:16:51.428453,f,f,,,0,0,31,,1,31,,,,,0,,f,t,,,,,{},
322,LIFT 1.3 Leaders in AFS,1,2,2018-10-17 16:14:51.884225,2018-10-23 16:57:09.581379,0,2018-10-18 18:36:26.20558,t,f,,,0,0,113,,0,113,,,,,0,,f,f,,,,,{},
351,3. 作为文化存在的“我”,12,2,2019-02-04 13:40:48.256698,2019-11-13 14:18:56.096682,0,2019-02-22 17:36:35.753973,t,f,,,0,0,1,,0,1,,,,,12,,f,t,,,,,{},
340,LIFT 3.6,0,2,2018-11-02 13:21:23.342082,2018-11-02 13:21:43.357685,80,2018-11-02 13:21:43.285882,f,f,,,0,0,113,2018-11-02 13:22:37.313234,0,113,,,,,0,,f,t,,,,,{},
330,LIFT 2.4 Self-Reflection,1,2432,2018-10-25 15:35:12.64065,2018-10-25 17:31:47.640617,0,2018-10-25 17:31:47.564598,f,f,,,0,0,113,,0,113,,,,,0,,f,f,,,,,{},
172,LDP 2.5 Leader Call,1,2,2018-05-11 20:52:29.439828,2019-05-06 14:14:10.90296,100,2018-05-07 19:47:33.547,t,f,,,0,0,31,,1,31,,,,,0,,f,f,,,,,{},
319,LIFT 1.1 Welcome to the LIFT online course!,2,1,2018-10-17 14:06:20.796823,2018-10-17 14:06:21.330795,0,2018-10-16 18:53:48.706,f,f,,,0,0,1,2018-10-17 16:13:55.116112,0,1,,,,,0,,f,f,,,,,{},
339,LIFT 3.5 Call & Coffee Break,2,2432,2018-10-30 16:31:46.412026,2018-11-02 13:23:29.457846,0,2018-11-02 13:23:29.3443,f,f,,,0,0,117,,0,113,,,,,0,,f,f,,,,,{},
400,LDP (esp) 4.1 Llamado sobre Liderazgo : Grabación,90,4349,2019-07-23 13:49:57.277647,2019-08-14 14:04:19.911514,100,2019-08-14 14:04:19.868918,f,f,,,0,0,31,,1,31,,,,,0,,t,f,,,,,{},
306,,,2281,2018-10-02 15:57:50.714872,2018-10-02 15:57:51.489906,80,,t,f,,,0,0,31,2018-10-02 16:02:35.38101,0,31,,,,,0,,f,t,,,,,{},
298,Copy of NQT 1.5 - Coffee Break,1,2,2018-10-01 15:07:23.028387,2018-10-01 15:07:23.028387,80,2018-09-27 22:27:04.521,f,f,,,0,0,31,2018-10-01 15:07:39.172454,0,31,,,,,0,,f,t,,,,,{},
295,,,1,2018-09-28 22:10:16.150887,2018-09-28 22:10:16.671303,80,,f,f,,,1,0,1,2018-09-28 22:12:01.622691,0,1,,,,,0,,f,t,,,,,{},
292,NQT 2.1 - Welcome to week 2,1,1,2018-09-28 22:07:19.687727,2018-09-28 22:07:20.239157,80,2018-09-28 19:33:31.11,f,f,,,0,0,1,2018-10-01 20:44:22.398257,0,1,,,,,0,,f,t,,,,,{},
299,QT 1.4 - Learning Program Curriculum,20,2,2018-10-01 15:07:51.535974,2018-10-02 19:11:01.089678,100,2018-10-02 19:11:01.030734,f,f,,,0,0,31,,0,31,,,,,0,,t,t,,,,,{},
293,NQT 1.5 - Coffee Break,1,1,2018-09-28 22:07:30.693098,2018-09-28 22:07:31.258394,80,2018-09-27 22:27:04.521,f,f,,,0,0,1,2018-10-01 15:07:43.217051,0,1,,,,,0,,f,t,,,,,{},
294,,,1,2018-09-28 22:07:58.884732,2018-09-28 22:07:59.337543,80,,f,f,,,1,0,1,2018-09-28 22:12:08.753224,0,1,,,,,0,,f,t,,,,,{},
278,,,1,2018-09-28 22:03:55.381243,2018-09-28 22:03:55.869699,80,,f,f,,,1,0,1,2018-09-28 22:12:16.494152,0,1,,,,,0,,f,t,,,,,{},
300,QT 1.3 - Intro to the Learning Program and Intercultural Competence,20,2,2018-10-01 15:08:30.654013,2018-10-02 21:20:59.243004,100,2018-10-02 21:20:59.173747,f,f,,,0,0,31,,0,31,,,,,0,,t,t,,,,,{},
291,NQT 2.2 - AFS Educational Approach,25,1,2018-09-28 22:07:11.192369,2018-09-28 22:07:11.869498,80,2018-09-28 18:18:50.718,f,f,,,0,0,1,2018-10-01 20:45:16.321993,0,1,,,,,3,,t,t,,,,,{},
353,5. 文化价值观1,16,2,2019-02-04 13:50:43.720277,2019-11-13 14:29:56.876278,0,2019-11-13 14:29:56.75135,f,f,,,0,0,1,,0,1,,,,,12,,f,t,,,,,{},
354,6. 沟通风格,14,2,2019-02-04 13:54:57.724194,2019-11-13 14:30:06.166068,0,2019-11-13 14:30:06.032869,f,f,,,0,0,1,,0,1,,,,,12,,f,t,,,,,{},
290,NQT 2.3 - Definitions and Concepts of Culture,12,1,2018-09-28 22:06:59.669833,2018-09-28 22:07:00.243369,80,2018-09-19 09:18:05.656,f,f,,,0,0,1,2018-10-01 20:45:28.263705,0,1,,,,,2,,f,t,,,,,{},
383,LDP (esp) 1.3 Los líderes en AFS,10,4349,2019-07-15 16:57:43.990848,2019-07-15 19:30:03.474006,100,2019-07-15 17:14:52.509726,f,f,,,0,0,31,,3,31,,,,,0,,t,f,,,,1093,{},
363,15. 处理冲突,16,2,2019-02-04 14:49:09.320516,2019-02-22 17:52:06.158922,0,2019-02-22 17:52:06.035279,f,f,,,0,0,1,,0,1,,"",,,21,,f,t,,,,,{},
414,GCC 17. Making Sense of the Experience,5,2,2019-08-21 14:50:14.487529,2019-08-21 14:56:25.43267,0,2017-08-21 18:48:21.567,f,f,,,0,0,31,,1,31,,,,,0,,f,t,,,,,{},
364,16. 权力和特权,11,2,2019-02-04 14:57:09.54309,2019-02-22 17:54:34.670741,0,2019-02-22 17:54:34.585195,f,f,,,0,0,1,,0,1,,,,,0,,f,t,,,,,{},
372,,,3,2019-05-03 19:08:47.239928,2019-05-03 19:08:50.366829,80,,t,f,,,0,0,1,2019-09-04 15:56:04.229853,0,1,,,,,0,,f,t,,,,,{},
365,17. 体验的意义,5,2,2019-02-04 15:10:46.586476,2019-02-22 17:54:52.081335,0,2019-02-22 17:54:52.004391,f,f,,,0,0,1,,1,1,,,,,0,,f,t,,,,,{},
93,Requesting Accounts,3,2,2018-03-02 20:29:11.468666,2019-05-21 22:24:04.00026,0,2018-04-20 22:15:10.943414,f,f,,,0,0,1,,1,1,,,,,0,,f,t,,,,,,
366,18. 采取行动,9,2,2019-02-04 15:11:46.50856,2019-02-22 17:56:55.463477,0,2019-02-22 17:56:55.386223,f,f,,,0,0,1,,0,1,,,,,11,,f,t,,,,,{},
379,Learning Program - Level 1 Session 1 / Nivel 1 Sesión 1 ,27,4349,2019-07-12 20:15:45.569294,2019-07-12 20:21:19.420256,100,2019-07-12 20:21:19.210813,f,f,,,0,0,31,,1,31,,,,,0,,f,f,,,,1017,{},
371,,,3,2019-04-25 19:00:39.101821,2019-04-25 19:00:40.135934,80,,t,f,,,0,0,1,2019-09-04 15:56:09.60986,0,1,,,,,0,,f,t,,,,,{},
271,Governance - 2. AFS Structure and Articles of Partnership,17,1852,2018-09-10 19:26:20.634656,2019-04-08 21:14:10.733449,0,2019-04-08 21:14:10.511054,f,f,,,0,0,31,,0,31,,,,,12,,f,t,,,,,{},
95,Confirm invitation,4,2,2018-03-02 20:30:24.279358,2019-05-21 22:24:04.181574,0,2018-04-04 17:12:45.871359,f,f,,,0,0,1,,0,1,,,,,0,,f,t,,,,,,
455,Foundations - 3. Connect to Real-Life Experiences - Group 1,8,4349,2019-10-16 20:55:18.657019,2019-10-29 19:59:48.968656,80,2019-10-29 19:59:48.866238,f,f,,,0,0,31,,1,31,,,,,2,,f,t,,,,1463,{},
96,Send instructions and Facilitated Dialogue Session dates/times,2,2,2018-03-05 18:48:38.853907,2019-05-21 22:24:04.319464,0,2018-04-04 17:14:59.625423,f,f,,,0,0,1,,0,1,,,,,0,,f,f,,,,,,
419,GCC 4. Stereotypes & Generalizations,10,2,2019-08-21 14:51:13.019165,2019-08-21 14:52:22.46751,0,2017-08-18 20:09:50.074,f,f,,,0,0,31,,0,31,,"",,,9,,f,t,,,,,{},
98,Insights and Analytics!,6,2,2018-03-07 16:34:55.027241,2019-05-21 22:24:04.567873,0,2018-04-04 17:14:47.683012,f,f,,,0,0,1,,0,1,,,,,0,,f,t,,,,,,
500,Welcome GCC-PD Demo,5,4815,2019-11-04 16:07:56.439594,2019-11-05 18:54:26.926668,80,2019-11-05 18:54:26.781406,f,f,,,0,0,1,,0,1,,,,,0,,f,t,,,,,{},
421,GCC 6. Communication Styles,14,2,2019-08-21 14:51:25.594047,2019-08-21 14:53:09.302873,0,2017-10-06 15:22:58.081362,f,f,,,0,0,31,,0,31,,,,,12,,f,t,,,,,{},
401,"LDP (esp) 4.2 Tú, como líder ¡ahora! ",2,4349,2019-07-23 14:31:22.706261,2019-07-23 15:41:30.617935,100,2019-07-23 15:41:30.503112,f,f,,,0,0,31,,1,31,,,,,0,,f,f,,,,,{},
99,Approve and Issue Certificate,3,2,2018-03-12 14:29:41.331817,2019-05-21 22:24:04.687743,0,2018-04-04 17:14:32.457827,f,f,,,0,0,1,,2,1,,,,,0,,f,t,,,,,,
100,Host a FDS,3,2,2018-03-13 14:15:59.997007,2019-05-21 22:24:04.813649,0,2018-04-04 17:13:53.436074,f,f,,,0,0,1,,4,1,,,,,0,,f,t,,,,,,
432,GCC PD Empathy & Listening,8,2,2019-08-29 12:31:33.535815,2019-09-13 08:31:56.306511,0,2019-09-09 12:44:37.691727,f,f,,,0,0,1,,1,1,,,,,0,,f,t,,,,,{},
473,Foundations - 2. How AFS Creates Impact - Group 2,19,4349,2019-10-28 18:58:54.4882,2019-11-06 00:27:29.826242,80,2019-11-06 00:27:29.672152,f,f,,,0,0,31,,1,31,,,,,12,,f,t,,,,,"{""maintain_branding_in_sub_account"":false}",
381,LDP (esp) 1.1 Bienvenido/a al curso online LDP!,5,4349,2019-07-15 15:54:43.894882,2019-07-15 16:11:37.377818,100,2019-07-15 16:11:37.201548,f,f,,,0,0,31,,3,31,,,,,0,,f,f,,,,1046,"{""maintain_branding_in_sub_account"":false}",
170,LDP 2.4 Self-reflection,1,2,2018-05-11 20:52:13.413163,2019-05-06 14:14:27.749647,100,2018-05-07 19:46:51.708,t,f,,,0,0,31,,1,31,,,,,0,,f,f,,,,,{},
417,GCC 2. Metaphors of Culture,18,2,2019-08-21 14:50:44.896115,2019-08-21 14:54:29.73286,0,2017-10-06 14:33:10.375648,f,f,,,0,0,31,,0,31,,,,,1,,t,t,,,,,{},
420,GCC 5. Cultural Values,16,2,2019-08-21 14:51:18.938072,2019-08-22 12:28:20.016131,0,2019-08-22 12:28:19.891101,f,f,,,0,0,31,,0,31,,,,,12,,f,t,,,,,{},
434,GCC PD D.I.V.E.,10,2,2019-08-29 12:32:25.738515,2019-09-30 15:04:02.950818,0,2019-09-30 15:04:02.804652,f,f,,,0,0,1,,1,1,,,,,0,,f,t,,,,,{},
422,GCC 7. When Cultures Collide,14,2,2019-08-21 14:51:34.473349,2019-08-22 12:29:19.398858,0,2019-08-22 12:29:19.294721,f,f,,,0,0,31,,0,31,,"",,,15,,f,t,,,,,{},
402,LDP (esp) 4.3 ✮ Fin y Próximos Pasos,0,4349,2019-07-23 15:42:51.087188,2019-07-24 15:19:56.074048,100,2019-07-24 15:19:56.018781,f,f,,,0,0,31,,1,31,,,,,0,,t,f,,,,,{},
412,GCC 15. Dealing with Conflict,16,2,2019-08-21 14:50:04.477043,2019-08-22 12:35:23.036449,0,2019-08-22 12:35:22.893723,f,f,,,0,0,31,,0,31,,,,,21,,f,t,,,,,{},
415,GCC 18. Taking Action,9,2,2019-08-21 14:50:23.758492,2019-08-22 12:37:19.068104,0,2019-08-22 12:37:18.945713,f,f,,,0,0,31,,0,31,,,,,11,,f,t,,,,,{},
361,13. 认知方式：描述、解释和评估,14,2,2019-02-04 14:36:32.236977,2019-11-13 14:25:57.209453,0,2019-11-13 14:25:57.112275,f,f,,,0,0,1,,1,1,,"",,,12,,f,t,,,,,{},
391,LDP (esp) 2.5 ✆ Llamada sobre Liderazgo,2,4349,2019-07-16 20:14:12.577843,2019-07-26 14:08:45.862808,100,2019-07-26 14:08:45.776315,f,f,,,0,0,31,,1,31,,,,,0,,f,f,,,,,{},
357,9. 如何应对跨文化挑战,7,2,2019-02-04 14:15:32.397719,2019-11-13 14:30:34.947679,0,2019-11-13 14:30:34.854307,f,f,,,0,0,1,,0,1,,,,,0,,f,t,,,,,{},
359,11. 文化交流中的“惊喜”和“烦心事”,12,2,2019-02-04 14:26:25.415525,2019-11-13 14:31:00.991167,0,2019-11-13 14:31:00.943259,f,f,,,0,0,1,,0,1,,,,,12,,t,t,,,,,{},
388,LDP (esp) 2.2 El Modelo de Líder Incompleto,18,4349,2019-07-16 14:16:32.657992,2019-07-29 13:45:14.462912,80,2019-07-29 13:45:14.371683,f,f,,,0,0,31,,1,31,,,,,0,,f,t,,,,,{},
360,12. 文化“导航”,10,2,2019-02-04 14:29:34.946499,2019-11-13 14:31:12.534311,0,2019-11-13 14:31:12.448454,f,f,,,0,0,1,,0,1,,,,,0,,f,t,,,,,{},
403,Governance (esp) - 1. ¡Bienvenidos! ,10,4349,2019-07-24 17:08:25.818615,2019-07-29 16:59:55.843187,0,2019-07-29 16:59:55.742388,f,f,,,0,0,31,,1,31,,,,,0,,f,t,,,,,{},
396,LDP (esp) 3.4 Actividad: Plan de Crecimiento de Líderes Voluntarios de AFS,1,4349,2019-07-22 14:49:01.77626,2019-08-05 13:36:46.566839,80,2019-08-05 13:36:46.501966,f,f,,,0,0,31,,0,31,,,,,0,,f,t,,,,,{},
204,00. Welcome.,13,2,2018-06-01 18:31:11.209303,2019-11-18 21:57:13.923603,0,2019-11-18 21:57:13.870322,f,f,,,0,0,2,,2,2,,"",,,0,,t,t,,,,,{},
384,LDP (esp) 1.4 Lineamientos del Curso,10,4349,2019-07-15 17:15:14.169251,2019-07-15 17:15:33.362975,100,2019-07-12 17:34:24.416,f,f,,,0,0,31,,3,31,,,,,0,,t,f,,,,1100,{},
261,9. Comment surmonter les défis et difficultés,7,2,2018-07-30 17:22:32.87186,2019-02-07 15:15:46.667325,0,2019-02-07 15:15:46.540307,f,f,,,0,0,1,,0,1,,"",,,0,,f,t,,,,,"{""maintain_branding_in_sub_account"":false}",
83,9. Como lidar com desafios,7,2,2018-02-05 16:29:33.603919,2019-02-07 15:16:10.960553,0,2019-02-07 15:16:10.888528,f,f,,,0,0,1,,0,1,,,,,0,,f,t,,,,,{},
68,9. How to Cope with Challenge,7,2,2017-11-27 15:03:29.142392,2019-02-07 15:18:19.513448,0,2019-02-07 15:18:19.43204,f,f,,,0,0,6,,0,6,,,,,0,,f,t,,,,,{},
252,0. Bienvenue!,3,2,2018-07-30 15:17:58.226981,2019-05-24 12:04:45.873956,0,2019-05-24 12:04:45.772958,f,f,,,0,0,1,,3,1,,"",,,0,,f,t,,,,,"{""maintain_branding_in_sub_account"":false}",
171,LDP 2.1 Overview,2,2,2018-05-11 20:52:20.616234,2019-05-06 14:15:14.127865,100,2018-05-07 19:48:22.973,t,f,,,0,0,31,,1,31,,,,,0,,f,f,,,,,{},
97,Managing Groups/Cohorts,2,2,2018-03-07 16:26:34.187743,2019-05-21 22:24:04.432591,0,2018-04-04 17:15:14.395543,f,f,,,0,0,1,,0,1,,,,,0,,f,t,,,,,,
387,LDP (esp) 2.1 Mapa de la Semana Nº 2,1,4349,2019-07-15 20:03:02.222885,2019-07-26 13:58:12.707426,100,2019-07-26 13:58:12.618552,f,f,,,0,0,31,,1,31,,,,,0,,f,f,,,,,{},
382,LDP (esp) 1.2 Conociéndonos,10,4349,2019-07-15 16:13:08.307367,2019-07-17 18:18:14.801205,100,2019-07-17 18:18:14.739972,f,f,,,0,0,31,,3,31,,"",,,0,,t,f,,,,1080,{},
471,Foundations - 1. Welcome - Group 2,4,4349,2019-10-28 18:56:46.409093,2019-10-28 19:30:22.845462,80,2019-10-25 16:05:01.965278,f,f,,,0,0,31,,1,31,,,,,0,,f,t,,,,,"{""maintain_branding_in_sub_account"":false}",
380,Learning Program - Level 1 Session 2 / Nivel 1 Sesión 2,19,4349,2019-07-12 20:21:47.584666,2019-07-12 20:21:48.328224,100,2019-07-08 15:18:48.327,f,f,,,0,0,31,,1,31,,,,,0,,f,t,,,,1038,{},
389,LDP (esp) 2.3 Análisis de Stakeholders & Auto Reflexión,2,4349,2019-07-16 15:29:12.437484,2019-07-22 14:43:02.994497,80,2019-07-22 14:43:02.846837,f,f,,,0,0,31,,1,31,,,,,0,,f,t,,,,,{},
443,GCC PD Coping Strategies,2,2,2019-08-29 12:36:34.482806,2019-09-13 09:25:36.839302,0,2019-09-13 09:25:36.750738,f,f,,,0,0,1,,1,1,,,,,0,,f,t,,,,,{},
426,GCC PD Learning Styles,4,4815,2019-08-28 15:51:24.79168,2019-09-13 15:26:50.259158,0,2019-09-03 18:17:35.505163,t,f,,,0,0,1,,1,1,,"",,,0,,f,t,,,,,{},
427,GCC PD  Who am I? ,7,4815,2019-08-28 15:52:14.014535,2019-09-13 17:35:27.191047,0,2019-09-03 18:23:54.95954,t,f,,,0,0,1,,1,1,,"",,,0,,f,t,,,,,{},
413,GCC 16. Power and Privilege,11,2,2019-08-21 14:50:09.869187,2019-08-21 14:56:16.623701,0,2018-05-15 20:47:43.585393,f,f,,,0,0,31,,0,31,,,,,0,,f,t,,,,,{},
404,Governance (esp) 2. La Estructura de AFS y Articles of Partnership,18,4349,2019-07-26 14:33:58.227345,2019-07-29 20:20:00.795978,0,2019-07-29 20:20:00.599474,f,f,,,0,0,31,,0,31,,,,,24,,f,t,,,,,{},
416,GCC 1. Roadmap,20,2,2019-08-21 14:50:30.315996,2019-08-21 14:57:01.825446,0,2018-04-12 17:16:46.851767,f,f,,,0,0,31,,0,31,,,,,0,,t,f,,,,,{},
430,GCC PD  Observe your Context,9,2,2019-08-29 12:30:40.81695,2019-09-13 18:34:28.169905,0,2019-09-03 16:40:54.399723,t,f,,,0,0,1,,1,1,,,,,8,,f,t,,,,,{},
429,GCC PD Comfort Zone,9,2,2019-08-29 12:30:06.286052,2019-09-09 17:02:19.188405,0,2019-09-03 18:40:18.104891,f,f,,,0,0,1,,1,1,,,,,6,,f,t,,,,,{},
418,"GCC 3. ""Me"" as a Cultural Being",12,2,2019-08-21 14:51:06.16314,2019-08-21 14:51:59.401971,0,2017-08-18 19:58:10.546,f,f,,,0,0,31,,0,31,,,,,12,,f,t,,,,,{},
392,LDP (esp) 3.1 Mapa de la Semana Nº 3,4,4349,2019-07-18 17:40:56.710095,2019-08-06 13:19:09.795808,100,2019-08-06 13:19:09.701113,f,f,,,0,0,31,,1,31,,,,,0,,f,f,,,,,{},
424,GCC 9. How to Cope with Challenge,7,2,2019-08-21 14:51:48.690168,2019-08-21 14:54:15.415531,0,2019-02-07 15:16:45.184475,f,f,,,0,0,31,,0,31,,,,,0,,f,t,,,,,{},
407,"GCC 10. ""Them"" as Cultural Beings:",8,2,2019-08-21 14:49:40.606865,2019-08-21 14:54:45.321246,0,2018-07-30 17:37:58.233446,f,f,,,0,0,31,,0,31,,,,,0,,f,t,,,,,{},
399,LDP (esp) 3.6 Logística de la Llamada sobre Liderazgo,100,4349,2019-07-22 21:01:34.219454,2019-08-07 13:15:22.430222,100,2019-08-07 13:15:22.375354,f,f,,,0,0,31,,1,31,,,,,1,,t,f,,,,,{},
408,GCC 11. Cultural Surprises and Irritations,12,2,2019-08-21 14:49:44.647901,2019-08-21 14:54:59.819744,0,2017-10-06 14:49:43.645257,f,f,,,0,0,31,,0,31,,,,,12,,t,t,,,,,{},
406,GCC 0. Welcome!,3,2,2019-08-21 14:46:37.283375,2019-08-21 14:47:35.409933,0,2019-08-21 14:47:35.319697,f,f,,,0,0,31,,3,31,,"",,,0,,f,t,,,,,{},
431,GCC PD Stereotypes & Generalizations,6,2,2019-08-29 12:31:10.395588,2019-09-13 08:31:43.127397,0,2019-09-09 12:44:21.632091,f,f,,,0,0,1,,1,1,,,,,8,,f,t,,,,,{},
410,"GCC 13. Describe, Interpret, and Evaluate",14,2,2019-08-21 14:49:53.853977,2019-08-21 15:02:05.409614,0,2018-04-12 17:29:13.598651,f,f,,,0,0,31,,1,31,,"",,,12,,f,t,,,,,{},
514,GCC DP | Poder y privilegio,,2,2019-11-06 22:00:19.489363,2019-11-06 22:00:20.411441,80,,t,f,,,0,0,1,,0,1,,,,,0,,f,t,,,,,{},
423,GCC 8. Balancing Challenge and Support,11,2,2019-08-21 14:51:41.691491,2019-08-22 12:31:10.210194,0,2019-08-22 12:31:10.120896,f,f,,,0,0,31,,0,31,,,,,16,,f,t,,,,,{},
409,GCC 12. Navigating Culture,10,2,2019-08-21 14:49:48.569333,2019-08-22 12:32:59.116631,0,2019-08-22 12:32:58.994523,f,f,,,0,0,31,,0,31,,,,,0,,f,t,,,,,{},
393,LDP (esp) 3.2 Construir Visión,8,4349,2019-07-18 19:16:27.987222,2019-07-18 20:35:40.050775,100,2019-07-18 19:59:51.027313,f,f,,,0,0,31,,1,31,,,,,0,,f,f,,,,,{},
433,GCC PD When Differences Collide,8,2,2019-08-29 12:31:59.385079,2019-09-13 08:32:10.407471,0,2019-09-09 12:46:26.049304,f,f,,,0,0,1,,1,1,,"",,,4,,f,t,,,,,{},
411,GCC 14. More Cultural Values,13,2,2019-08-21 14:49:58.182656,2019-08-22 12:34:19.023653,0,2019-08-22 12:34:18.912727,f,f,,,0,0,31,,0,31,,,,,18,,f,t,,,,,{},
397,LDP (esp) 3.4 Mentoría,3,4349,2019-07-22 15:00:58.246666,2019-07-22 15:24:14.409228,100,2019-07-22 15:24:14.325639,f,f,,,0,0,31,,1,31,,,,,0,,f,f,,,,,{},
446,GCC PD 21st Century Skills,4,2,2019-08-29 12:39:14.125204,2019-10-02 07:45:18.510868,0,2019-10-02 07:45:18.394134,f,f,,,0,0,1,,1,1,,,,,0,,f,t,,,,,{},
437,GCC PD Dealing With Conflict,5,2,2019-08-29 12:33:48.540931,2019-10-03 06:31:10.692672,0,2019-10-03 06:31:10.574914,f,f,,,0,0,1,,1,1,,,,,2,,f,t,,,,,{},
428,GCC PD Roadmap,1,2,2019-08-29 12:29:19.740165,2019-09-13 15:05:17.72516,0,2019-09-03 16:25:23.60551,t,f,,,0,0,1,,1,1,,,,,0,,f,t,,,,,{},
451,,,4349,2019-10-03 20:48:19.560594,2019-10-03 20:48:21.101913,80,,t,f,,,0,0,1,,0,1,,,,,1,,f,t,,,,,{},
452,,,4349,2019-10-16 18:34:55.354159,2019-10-16 18:34:56.329282,80,,t,f,,,0,0,31,2019-10-16 18:35:49.049714,0,31,,,,,0,,f,t,,,,,{},
425,18. Coping Strategies,,3218,2019-08-28 15:18:11.913246,2019-08-28 15:21:49.750855,0,,t,f,,,0,0,31,2019-08-28 15:50:56.018614,0,31,,,,,0,,f,f,,,,,{},
373,,,3,2019-05-03 19:15:21.967736,2019-05-03 19:15:22.569571,80,,t,f,,,0,0,1,2019-09-04 15:55:58.005495,0,1,,,,,0,,f,t,,,,,{},
504,GCC DP | Empatía y escucha,,2,2019-11-06 21:55:43.343555,2019-11-06 21:55:44.399619,80,,t,f,,,0,0,1,,0,1,,,,,0,,f,t,,,,,{},
472,Foundations - 1. Welcome - Group 3,4,4349,2019-10-28 18:57:35.410735,2019-10-28 19:30:34.094922,80,2019-10-25 16:05:01.965278,f,f,,,0,0,31,,1,31,,,,,0,,f,t,,,,,"{""maintain_branding_in_sub_account"":false}",
438,GCC PD Polarization,9,2,2019-08-29 12:34:11.288432,2019-10-02 07:37:04.802195,0,2019-10-02 07:37:04.680393,f,f,,,0,0,1,,1,1,,,,,8,,f,t,,,,,{},
440,GCC PD Understanding Inequality,13,2,2019-08-29 12:35:20.513375,2019-10-02 07:38:41.333689,0,2019-10-02 07:38:41.19703,f,f,,,0,0,1,,1,1,,,,,6,,f,t,,,,,{},
441,GCC PD Microaggressions,3,2,2019-08-29 12:35:44.220774,2019-10-03 06:22:20.459496,0,2019-10-03 06:22:20.364973,f,f,,,0,0,1,,1,1,,"",,,2,,f,t,,,,,{},
507,GCC DP | Valores dimensionales de la cultura,0,2,2019-11-06 21:57:18.869936,2019-11-06 21:57:55.897842,0,2019-11-06 21:57:32.532047,f,f,,,0,0,1,,0,1,,,,,0,,f,t,,,,,{},
439,GCC PD Spiritual Diversity,5,2,2019-08-29 12:34:55.997999,2019-10-02 07:34:09.322904,0,2019-10-02 07:34:09.192197,f,f,,,0,0,1,,1,1,,,,,0,,f,t,,,,,{},
501,End GCC-PD,5,4815,2019-11-04 19:26:10.539339,2019-11-05 18:57:58.625007,80,2019-11-05 18:57:58.528592,f,f,,,0,0,1,,0,1,,,,,0,,f,t,,,,,{},
435,GCC PD Cultural Value Dimensions,9,2,2019-08-29 12:32:53.075373,2019-10-16 16:55:36.421132,0,2019-10-16 16:55:36.298974,f,f,,,0,0,1,,1,1,,"",,,6,,f,t,,,,,{},
510,GCC DP | Espiritualidad,,2,2019-11-06 21:59:05.590164,2019-11-06 21:59:06.736334,80,,t,f,,,0,0,1,,0,1,,,,,0,,f,t,,,,,{},
512,GCC DP | Habilidades para el siglo XXI,,2,2019-11-06 21:59:44.410636,2019-11-06 21:59:45.376407,80,,t,f,,,0,0,1,,0,1,,,,,0,,f,t,,,,,{},
456,Foundations - 4. Understanding Differences - Group 1,14,4637,2019-10-17 19:25:18.878119,2019-10-29 20:01:57.99808,80,2019-10-29 20:01:57.868453,f,f,,,0,0,31,,1,31,,,,,1,,f,t,,,,1475,"{""maintain_branding_in_sub_account"":false}",
447,GCC PD 05,,2,2019-08-29 12:41:35.762978,2019-08-29 12:41:36.712242,80,,t,f,,,0,0,1,2019-08-29 12:44:07.843052,0,1,,,,,0,,f,t,,,,,{},
445,GCC PD 19,,2,2019-08-29 12:38:04.460026,2019-08-29 12:38:05.194338,80,,t,f,,,0,0,1,2019-08-29 12:44:12.348143,0,1,,,,,0,,f,t,,,,,{},
515,GCC DP | Microagresiones,,2,2019-11-06 22:00:50.245329,2019-11-06 22:00:51.430942,80,,t,f,,,0,0,1,,0,1,,,,,0,,f,t,,,,,{},
517,GCC DP | Polarización,,2,2019-11-06 22:01:34.040952,2019-11-06 22:01:35.114901,80,,t,f,,,0,0,1,,0,1,,,,,0,,f,t,,,,,{},
457,Foundations - 5. Stereotypes and Generalizations - Group 1,13,4637,2019-10-17 19:27:33.94439,2019-10-29 20:03:28.301427,80,2019-10-29 20:03:28.187778,f,f,,,0,0,31,,1,31,,,,,2,,f,t,,,,1487,"{""maintain_branding_in_sub_account"":false}",
464,Copy of Foundations - 5. Stereotypes and Generalizations,14,4349,2019-10-18 13:26:35.118005,2019-10-18 13:26:35.118005,80,2019-10-18 13:18:48.705193,f,f,,,0,0,31,2019-10-18 13:27:01.818851,0,31,,,,,2,,f,t,,,,,"{""maintain_branding_in_sub_account"":false}",
442,GCC PD Power & Privilege,9,2,2019-08-29 12:36:10.474686,2019-09-13 09:22:23.137538,0,2019-09-13 09:22:23.004799,f,f,,,0,0,1,,1,1,,,,,10,,f,t,,,,,{},
444,GCC PD Taking Action,3,2,2019-08-29 12:37:02.649261,2019-09-13 09:39:18.559744,0,2019-09-13 09:39:18.446665,f,f,,,0,0,1,,1,1,,"",,,0,,f,t,,,,,{},
474,Foundations - 2. How AFS Creates Impact - Group 3,19,4349,2019-10-28 18:59:45.682725,2019-11-06 00:28:17.063458,80,2019-11-06 00:28:16.896854,f,f,,,0,0,31,,1,31,,,,,17,,f,t,,,,,"{""maintain_branding_in_sub_account"":false}",
460,Foundations - 8. Suspending Judgment - Group 1,18,4637,2019-10-17 19:31:53.973959,2019-10-29 20:06:39.757018,80,2019-10-29 20:06:39.579604,f,f,,,0,0,31,,1,31,,,,,2,,f,t,,,,1501,"{""maintain_branding_in_sub_account"":false}",
499,GCC PD,,400,2019-10-30 21:11:31.502679,2019-10-30 21:11:32.204681,80,,t,f,,,0,0,233,2019-10-30 21:13:04.062995,0,233,,,,,0,,f,t,,,,,{},
436,GCC PD Communication Styles,8,2,2019-08-29 12:33:18.602716,2019-10-02 07:23:46.597236,0,2019-10-02 07:23:46.477091,f,f,,,0,0,1,,1,1,,,,,8,,f,t,,,,,{},
453,Foundations - 1. Welcome - Group 1,4,4349,2019-10-16 18:36:33.751669,2019-10-25 19:38:56.201815,80,2019-10-25 16:05:01.965278,f,f,,,0,0,31,,1,31,,,,,0,,f,t,,,,1456,"{""maintain_branding_in_sub_account"":false}",
475,Foundations - 3. Connect to Real-Life Experiences - Group 2,8,4349,2019-10-28 19:00:57.47381,2019-10-29 20:17:51.465321,80,2019-10-29 20:17:51.358637,f,f,,,0,0,31,,1,31,,,,,3,,f,t,,,,,{},
458,Foundations - 6. Cultural Value Dimensions - Group 1,27,4637,2019-10-17 19:30:52.008922,2019-10-31 14:23:55.27967,80,2019-10-31 14:23:55.07486,f,f,,,0,0,31,,1,31,,,,,14,,f,t,,,,1491,"{""maintain_branding_in_sub_account"":false}",
454,Foundations - 2. How AFS Creates Impact - Group 1,19,4349,2019-10-16 20:50:00.833167,2019-11-06 00:28:52.306333,80,2019-11-06 00:28:52.169478,f,f,,,0,0,31,,1,31,,,,,7,,f,t,,,,1459,"{""maintain_branding_in_sub_account"":false}",
477,Foundations - 4. Understanding Differences - Group 2,14,4349,2019-10-28 19:07:16.775374,2019-10-29 20:18:36.229267,80,2019-10-29 20:18:36.065388,f,f,,,0,0,31,,1,31,,,,,1,,f,t,,,,,"{""maintain_branding_in_sub_account"":false}",
462,Foundations - 10. Active Global Citizenships - Group 1,12,4637,2019-10-17 19:32:30.29403,2019-11-06 15:54:57.232529,80,2019-11-06 15:54:57.105846,f,f,,,0,0,31,,1,31,,,,,0,,f,t,,,,1528,"{""maintain_branding_in_sub_account"":false}",
470,Copy of Foundations - 2. How AFS Creates Impact - Group 1,18,4349,2019-10-28 16:50:44.688234,2019-10-28 16:51:26.66858,80,2019-10-28 16:51:26.512707,f,f,,,0,0,31,2019-10-28 17:11:51.747161,0,31,,,,,7,,f,t,,,,,"{""maintain_branding_in_sub_account"":false}",
479,Foundations - 5. Stereotypes and Generalizations - Group 2,13,4349,2019-10-28 19:09:33.775174,2019-10-29 20:19:09.824577,80,2019-10-29 20:19:09.699732,f,f,,,0,0,31,,1,31,,,,,3,,f,t,,,,,"{""maintain_branding_in_sub_account"":false}",
478,Foundations - 4. Understanding Differences - Group 3,14,4349,2019-10-28 19:08:45.593622,2019-10-29 21:09:34.169382,80,2019-10-29 21:09:34.04151,f,f,,,0,0,31,,1,31,,,,,1,,f,t,,,,,"{""maintain_branding_in_sub_account"":false}",
461,Foundations - 9. Understanding Inequality - Group 1,29,4637,2019-10-17 19:32:11.565089,2019-11-06 16:05:58.261771,80,2019-11-06 16:05:58.0798,f,f,,,0,0,31,,1,31,,,,,14,,f,t,,,,1518,"{""maintain_branding_in_sub_account"":false}",
463,Foundations - 11. Closing - Group 1,8,4637,2019-10-17 19:33:01.744335,2019-11-01 18:52:39.542987,80,2019-11-01 18:52:39.411266,f,f,,,0,0,31,,1,31,,,,,0,,f,t,,,,1532,"{""maintain_branding_in_sub_account"":false}",
476,Foundations - 3. Connect to Real-Life Experiences - Group 3,8,4349,2019-10-28 19:03:15.83563,2019-10-28 19:03:24.89093,80,2019-10-28 18:32:38.957737,f,f,,,0,0,31,,1,31,,,,,4,,f,t,,,,,{},
505,GCC DP | Cuando chocan las diferencias,,2,2019-11-06 21:56:09.432988,2019-11-06 21:56:10.645935,80,,t,f,,,0,0,1,,0,1,,,,,0,,f,t,,,,,{},
508,GCC DP | Estilos de comunicación,,2,2019-11-06 21:58:27.858618,2019-11-06 21:58:28.895444,80,,t,f,,,0,0,1,,0,1,,,,,0,,f,t,,,,,{},
511,GCC DP | Tomar acción/actuar,,2,2019-11-06 21:59:26.141508,2019-11-06 21:59:27.248653,80,,t,f,,,0,0,1,,0,1,,,,,0,,f,t,,,,,{},
486,Foundations - 8. Suspending Judgment - Group 3,18,4349,2019-10-28 19:14:18.890187,2019-10-29 21:12:52.230545,80,2019-10-29 21:12:52.065964,f,f,,,0,0,31,,1,31,,,,,4,,f,t,,,,,"{""maintain_branding_in_sub_account"":false}",
513,GCC DP | Estrategias para afrontar situaciones,,2,2019-11-06 21:59:57.752903,2019-11-06 21:59:58.796486,80,,t,f,,,0,0,1,,0,1,,,,,0,,f,t,,,,,{},
465,GCC DP | Hoja de ruta,1,2,2019-10-22 16:23:48.182635,2019-11-06 21:24:48.223528,0,2019-11-06 17:56:02.824515,f,f,,,0,0,1,,0,1,,,,,0,,f,t,,,,,{},
516,GCC DP | Comprensión de la desigualdad,,2,2019-11-06 22:01:15.01056,2019-11-06 22:01:16.262693,80,,t,f,,,0,0,1,,0,1,,,,,0,,f,t,,,,,{},
488,Foundations - 9. Understanding Inequality - Group 3,30,4349,2019-10-28 19:22:50.9658,2019-11-06 15:47:01.189789,80,2019-11-06 15:47:00.944706,f,f,,,0,0,31,,1,31,,,,,28,,f,t,,,,,"{""maintain_branding_in_sub_account"":false}",
502,GCC DP | Observa tu contexto,15,2,2019-11-06 21:24:15.509535,2019-11-12 21:19:27.800182,0,2019-11-12 21:19:27.661127,f,f,,,0,0,1,,0,1,,,,,4,,f,t,,,,,{},
490,Foundations - 10. Active Global Citizenships - Group 3,13,4349,2019-10-28 19:24:31.284939,2019-11-06 15:49:13.82563,80,2019-11-06 15:49:13.680019,f,f,,,0,0,31,,1,31,,,,,0,,f,t,,,,,"{""maintain_branding_in_sub_account"":false}",
518,Foundations - 11. Closing - Group 3.b,8,4349,2019-11-07 14:19:50.268758,2019-11-07 14:20:27.391798,80,2019-11-01 18:52:39.411266,f,f,,,0,0,31,,1,31,,,,,0,,f,t,,,,,"{""maintain_branding_in_sub_account"":false}",
487,Foundations - 9. Understanding Inequality - Group 2,30,4349,2019-10-28 19:21:13.645622,2019-11-06 15:56:09.916259,80,2019-11-06 15:56:09.671379,f,f,,,0,0,31,,1,31,,,,,21,,f,t,,,,,"{""maintain_branding_in_sub_account"":false}",
467,GCC DP | ​¿Quién soy?,9,2,2019-10-22 16:36:12.616232,2019-11-12 21:30:45.147173,0,2019-11-12 21:30:44.999702,f,f,,,0,0,1,,0,1,,,,,0,,f,t,,,,,{},
367, 0. 课程须知,3,2,2019-02-04 15:34:33.983793,2019-11-13 14:16:16.651219,0,2019-02-22 17:25:41.52181,f,f,,,0,0,1,,3,1,,"",,,0,,f,t,,,,,{},
489,Foundations - 10. Active Global Citizenships - Group 2,13,4349,2019-10-28 19:23:55.092352,2019-10-30 20:11:12.021475,80,2019-10-30 20:11:11.90136,f,f,,,0,0,31,,1,31,,,,,0,,f,t,,,,,"{""maintain_branding_in_sub_account"":false}",
466,GCC DP | Estilos de aprendizaje,4,2,2019-10-22 16:29:38.253336,2019-11-06 21:25:20.158066,0,2019-11-06 17:55:47.797519,f,f,,,0,0,1,,0,1,,,,,0,,f,t,,,,,{},
468,GCC DP |  Zona de confort,14,2,2019-10-22 17:45:28.426957,2019-11-06 21:25:41.594164,0,2019-11-06 21:23:47.334778,f,f,,,0,0,1,,0,1,,,,,3,,f,t,,,,,{},
358,10. 作为文化存在的“他们”,8,2,2019-02-04 14:18:03.582823,2019-11-13 14:24:36.187416,0,2019-11-13 14:24:36.080964,f,f,,,0,0,1,,0,1,,,,,0,,f,t,,,,,{},
362,14. 文化价值观2,13,2,2019-02-04 14:42:18.27808,2019-11-13 14:26:24.291769,0,2019-11-13 14:26:24.192597,f,f,,,0,0,1,,0,1,,,,,18,,f,t,,,,,{},
350,2. 文化的隐喻,18,2,2019-02-04 13:33:09.742293,2019-11-13 14:29:21.564418,0,2019-11-13 14:29:21.526593,f,f,,,0,0,1,,0,1,,,,,1,,t,t,,,,,{},
352,4. 刻板印象和普遍现象,10,2,2019-02-04 13:47:09.6947,2019-11-13 14:29:46.421547,0,2019-11-13 14:29:46.327238,f,f,,,0,0,1,,0,1,,"",,,9,,f,t,,,,,{},
482,Foundations - 6. Cultural Value Dimensions - Group 3,27,4349,2019-10-28 19:11:18.59719,2019-10-31 14:26:10.565099,80,2019-10-31 14:26:10.415346,f,f,,,0,0,31,,1,31,,,,,28,,f,t,,,,,"{""maintain_branding_in_sub_account"":false}",
355,7. 文化冲突,14,2,2019-02-04 14:01:19.577835,2019-11-13 14:30:15.951998,0,2019-11-13 14:30:15.860718,f,f,,,0,0,1,,0,1,,"",,,15,,f,t,,,,,{},
485,Foundations - 8. Suspending Judgment - Group 2,18,4349,2019-10-28 19:13:45.151149,2019-10-29 20:21:45.081355,80,2019-10-29 20:21:44.891943,f,f,,,0,0,31,,1,31,,,,,3,,f,t,,,,,"{""maintain_branding_in_sub_account"":false}",
356,8. 文化挑战和应对策略,11,2,2019-02-04 14:07:42.863243,2019-11-13 14:30:25.413911,0,2019-11-13 14:30:25.319612,f,f,,,0,0,1,,0,1,,,,,16,,f,t,,,,,{},
481,Foundations - 6. Cultural Value Dimensions - Group 2,27,4349,2019-10-28 19:10:46.541022,2019-10-31 14:27:00.277538,80,2019-10-31 14:27:00.096171,f,f,,,0,0,31,,1,31,,,,,21,,f,t,,,,,"{""maintain_branding_in_sub_account"":false}",
48,DEMO - Welcome,6,2,2017-11-08 21:14:12.524237,2019-11-13 22:10:26.778415,0,2019-11-13 22:10:26.666521,f,f,,,0,0,5,,0,5,,,,,0,,f,t,,,,,{},
480,Foundations - 5. Stereotypes and Generalizations - Group 3,13,4349,2019-10-28 19:09:58.368357,2019-10-29 21:10:29.467849,80,2019-10-29 21:10:29.333066,f,f,,,0,0,31,,1,31,,,,,4,,f,t,,,,,"{""maintain_branding_in_sub_account"":false}",
349,1. 路线图-课程结构,20,2,2019-02-04 13:20:57.078986,2019-11-14 06:46:43.321824,0,2019-11-14 06:46:43.276058,f,f,,,0,0,1,,0,1,,"",,,0,,t,f,,,,,{},
496,Who Am I? GCC PD-D,1,4815,2019-10-29 17:56:10.310985,2019-11-01 13:44:02.173866,0,2019-10-31 19:31:43.418974,f,f,,,0,0,1,,0,1,,"",,,0,,f,t,,,,,{},
495,Empathy & Listening GCC PD-D,1,4815,2019-10-29 17:49:01.929456,2019-11-01 13:44:24.381962,0,2019-10-29 17:54:40.348485,f,f,,,0,0,1,,0,1,,"",,,0,,f,t,,,,,{},
494,Stereotypes & Generalizations GCC PD-D,1,4815,2019-10-29 17:22:29.660565,2019-11-01 13:44:52.294094,0,2019-10-29 17:48:32.273112,f,f,,,0,0,1,,0,1,,,,,0,,f,t,,,,,{},
484,Foundations - 7. Communication Styles - Group 3,21,4349,2019-10-28 19:12:56.937493,2019-11-14 16:38:27.747992,80,2019-11-14 16:38:27.584888,f,f,,,0,0,31,,1,31,,,,,16,,f,t,,,,,"{""maintain_branding_in_sub_account"":false}",
459,Foundations - 7. Communication Styles - Group 1,21,4637,2019-10-17 19:31:20.853019,2019-11-14 16:39:12.172892,80,2019-11-14 16:39:11.990896,f,f,,,0,0,31,,1,31,,,,,8,,f,t,,,,1496,"{""maintain_branding_in_sub_account"":false}",
503,GCC DP | Estereotipos y generalizaciones,12,2,2019-11-06 21:55:22.589409,2019-11-19 03:50:43.93748,0,2019-11-19 03:49:57.560143,f,f,,,0,0,1,,0,1,,,,,4,,f,t,,,,,{},
492,Foundations - 11. Closing - Group 3,8,4349,2019-10-28 19:26:40.422926,2019-11-01 19:02:03.391268,80,2019-11-01 19:02:03.258464,f,f,,,0,0,31,,1,31,,,,,0,,f,t,,,,,"{""maintain_branding_in_sub_account"":false}",
491,Foundations - 11. Closing - Group 2,8,4349,2019-10-28 19:25:14.13259,2019-11-01 19:02:26.006807,80,2019-11-01 19:02:25.895217,f,f,,,0,0,31,,1,31,,,,,0,,f,t,,,,,"{""maintain_branding_in_sub_account"":false}",
483,Foundations - 7. Communication Styles - Group 2,21,4349,2019-10-28 19:12:14.672714,2019-11-14 16:39:46.804935,80,2019-11-14 16:39:46.595935,f,f,,,0,0,31,,1,31,,,,,12,,f,t,,,,,"{""maintain_branding_in_sub_account"":false}",
